<?xml version="1.0" encoding="UTF-8" standalone="no"?>
<!-- Created with Inkscape (http://www.inkscape.org/) -->

<svg
   xmlns:dc="http://purl.org/dc/elements/1.1/"
   xmlns:cc="http://creativecommons.org/ns#"
   xmlns:rdf="http://www.w3.org/1999/02/22-rdf-syntax-ns#"
   xmlns:svg="http://www.w3.org/2000/svg"
   xmlns="http://www.w3.org/2000/svg"
   xmlns:sodipodi="http://sodipodi.sourceforge.net/DTD/sodipodi-0.dtd"
   xmlns:inkscape="http://www.inkscape.org/namespaces/inkscape"
   id="svg2"
   version="1.1"
   inkscape:version="0.91 r13725"
   width="550"
   height="425"
   xml:space="preserve"
   sodipodi:docname="calibration_thrust_step_1.svg"><metadata
     id="metadata8"><rdf:RDF><cc:Work
         rdf:about=""><dc:format>image/svg+xml</dc:format><dc:type
           rdf:resource="http://purl.org/dc/dcmitype/StillImage" /><dc:title></dc:title></cc:Work></rdf:RDF></metadata><defs
     id="defs6" /><sodipodi:namedview
     pagecolor="#ffffff"
     bordercolor="#666666"
     borderopacity="1"
     objecttolerance="10"
     gridtolerance="10"
     guidetolerance="10"
     inkscape:pageopacity="0"
     inkscape:pageshadow="2"
     inkscape:window-width="1920"
     inkscape:window-height="1017"
     id="namedview4"
     showgrid="false"
     inkscape:zoom="1.2339869"
     inkscape:cx="498.73205"
     inkscape:cy="76.340778"
     inkscape:window-x="-8"
     inkscape:window-y="-8"
     inkscape:window-maximized="1"
     inkscape:current-layer="g10" /><g
     id="g10"
     inkscape:groupmode="layer"
     inkscape:label="calibration_thrust_step_1"
     transform="matrix(1.25,0,0,-1.25,0,425)"><g
       id="g12"
       transform="matrix(0.46256568,0,0,0.46256568,123.00399,85.307686)"><path
         d="m 0,0 7.9,2.9 m -136.2,300.9 0,-1 m 0,-12 -0.1,-2.3 m 14.6,26.3 0,4.2 M 624.9,83.7 624.6,83 l -0.2,-0.9 -0.1,-0.8 -0.1,-0.8 0.1,-0.9 0.1,-0.8 0.2,-0.8 0.4,-0.8 m 0,0 1.6,-2.4 2.4,-1.7 2.9,-0.7 2.9,0.3 2.6,1.3 2,2.2 1.1,2.8 0.1,2.9 -1,2.8 -1.9,2.2 -2.6,1.5 m -67.9,123.4 24,-53.4 m 9.3,-20.7 24.3,-54 m 10.4,4.6 -24.6,54.7 m -8.6,19.2 -24.4,54.2 m 0,-0.1 0.6,2.9 -0.4,2.9 -1.4,2.5 -2.3,2 -2.7,1 -3,-0.1 -2.7,-1 -2.2,-2 -1.4,-2.6 -0.3,-3 0.7,-2.8 m 0,0 0.4,-0.8 0.4,-0.7 0.6,-0.6 0.6,-0.6 0.6,-0.6 0.7,-0.4 0.8,-0.4 0.7,-0.3 m -75.6,5.6 -0.3,-0.8 -0.2,-0.8 -0.1,-0.9 0,-0.8 0,-0.9 0.2,-0.8 0.2,-0.8 0.3,-0.8 m 0,0 1.7,-2.4 2.4,-1.7 2.9,-0.7 2.9,0.3 2.6,1.4 2,2.1 1.1,2.8 0,2.9 -1,2.8 -1.9,2.2 -2.5,1.5 m -67.9,123.4 24,-53.4 m 9.3,-20.7 24.3,-54 m 10.3,4.6 -24.5,54.7 m -8.7,19.2 -24.3,54.2 m -0.1,-0.1 0.7,2.9 -0.4,2.9 -1.5,2.6 -2.2,1.9 -2.8,1 -2.9,-0.1 -2.8,-1 -2.1,-2 -1.4,-2.6 -0.3,-2.9 0.7,-2.9 m 0,0 0.3,-0.7 0.5,-0.8 0.5,-0.6 0.6,-0.6 0.7,-0.5 0.7,-0.5 0.7,-0.4 0.8,-0.3 M 401.5,55.1 404.1,56 m -0.4,0 0.3,0 1.8,1.1 0.4,0.5 m 2.2,4.9 1.1,5.9 m -7,19 -0.8,0.6 m 7.3,-22.6 8.5,3.2 m -8.8,23.9 -7,-2.6 m 18,-18.6 0.5,1.5 m -6.8,18.2 -1.3,0.8 m 42.5,180.2 0,0.7 -0.1,0.7 m -2.8,-2.5 -0.1,0.7 -0.1,0.7 m -2.8,-2.5 -0.1,0.7 0,0.7 m -6.5,7.4 0.3,-0.6 0.4,-0.5 m -3.7,0 0.4,-0.6 0.3,-0.5 m -3.7,0 0.2,-0.3 0.2,-0.2 m 0.4,-10.4 -0.1,0.6 -0.1,0.7 m -2.8,-2.4 0,0.6 -0.1,0.7 m -2.8,-2.4 -0.1,0.6 -0.1,0.7 m -2.8,-2.4 -0.1,0.6 0,0.7 m -2.8,-2.4 -0.1,0.6 -0.1,0.8 m -2.8,-2.5 -0.1,0.7 -0.1,0.7 m -6.5,7.4 0.4,-0.6 0.4,-0.6 m -3.7,0.1 0.4,-0.6 0.3,-0.5 m -8.8,-13.2 -0.1,0.7 -0.1,0.7 m 0.2,8.5 -0.4,0.5 -0.4,0.6 m 3.7,0 -0.4,0.5 -0.3,0.6 m 12.5,3.2 -0.3,0.6 -0.4,0.6 m 3.7,-0.1 -0.4,0.6 -0.3,0.5 m 3.7,0 -0.4,0.6 -0.4,0.5 m 3.7,0 -0.3,0.6 -0.4,0.5 m 3.7,0 -0.4,0.6 -0.4,0.5 m 3.7,0 -0.3,0.5 -0.4,0.6 m 3.7,0 -0.2,0.3 -0.2,0.3 m 9.3,2.7 -0.4,0.5 -0.4,0.6 m 3.7,0 -0.3,0.5 -0.4,0.6 m 3.7,0 -0.4,0.5 -0.4,0.6 m 3.7,0 -0.3,0.5 -0.4,0.6 m -15.2,-11.4 0.7,-2 0.3,-1.7 m -1,3.7 -1.1,2.4 -1.5,2.4 m 13.4,-4.9 0.4,-0.6 0.4,-0.5 m -3.7,0 0.4,-0.6 0.3,-0.5 m -9.6,-2.2 0.4,-0.6 0.4,-0.5 m -3.8,0 0.4,-0.6 0.4,-0.5 m -3.7,0 0.4,-0.6 0.3,-0.5 m -3.7,0 0.4,-0.6 0.4,-0.5 m -3.7,0 0.4,-0.5 0.3,-0.6 m -3.7,0.1 0.4,-0.6 0.4,-0.6 m -3.7,0.1 0.4,-0.6 0.3,-0.6 m -6.5,-1.3 0.2,-0.3 0.3,-0.3 m -9.5,-2.4 0.4,-0.6 0.3,-0.5 m 11.8,4.5 -0.3,0.4 -0.4,0.6 m 27.3,8.8 -0.3,0.4 -0.4,0.6 m 34.5,5.8 2.2,0.9 m -24.6,-9.1 11.6,4.3 m -14.6,-5.4 0.1,0 m -3,-1.1 0.1,0 m -3.1,-1.1 0.1,0 m -3.1,-1.1 0.2,0 m -3.1,-1.1 0.1,0 m -3.1,-1.1 0.1,0 m -3,-1.1 0.1,0.1 m -3.1,-1.2 0.1,0.1 m -3,-1.2 0.1,0.1 m -3.1,-1.2 0.1,0.1 m -3.1,-1.2 0.2,0.1 m -3.1,-1.2 0.1,0.1 m -3.1,-1.1 0.1,0 m -3,-1.1 0.1,0 m -3.1,-1.1 0.1,0 m -3.1,-1.1 0.2,0 m -3.1,-1.1 0.1,0 m -0.5,24 -0.1,0 m 3.1,1.1 -0.1,0 m 3.1,1.1 -0.2,0 m 3.1,1.1 -0.1,0 m 3.1,1.1 -0.1,0 m 3,1.1 -0.1,0 m 3.1,1.1 -0.1,-0.1 m 3,1.2 -0.1,-0.1 m 3.1,1.2 -0.1,-0.1 m 3.1,1.2 -0.2,-0.1 m 3.1,1.2 -0.1,-0.1 m 3.1,1.2 -0.1,-0.1 m 3,1.1 -0.1,0 m 3.1,1.1 -0.1,0 m 3.1,1.1 -0.2,0 m 13.1,4.8 -10.1,-3.7 m 23.1,8.5 -3.5,-1.3 m 13.3,-17.5 0.5,1.4 m -5.9,16 -1.3,0.8 m 112.3,-158.1 -0.1,0.6 -0.1,0.8 m -2.8,-2.5 -0.1,0.7 0,0.7 m -2.8,-2.5 -0.1,0.7 -0.1,0.7 m -6.5,7.4 0.4,-0.6 0.3,-0.5 m -3.7,0 0.4,-0.6 0.4,-0.5 m -3.7,0 0.2,-0.3 0.2,-0.3 m 0.3,-10.4 0,0.7 -0.1,0.7 m -2.8,-2.5 -0.1,0.7 -0.1,0.7 m -2.8,-2.4 -0.1,0.6 0,0.7 m -2.8,-2.4 -0.1,0.6 -0.1,0.7 m -2.8,-2.4 -0.1,0.6 -0.1,0.7 m -2.8,-2.4 0,0.6 -0.1,0.7 m -6.5,7.4 0.4,-0.5 0.3,-0.6 m -3.7,0.1 0.4,-0.6 0.4,-0.6 m -8.9,-13.1 -0.1,0.7 -0.1,0.7 m -2.8,-2.5 0,0.7 -0.1,0.7 m -2.8,-2.5 -0.1,0.7 -0.1,0.7 m -2.8,-2.5 -0.1,0.7 0,0.7 m -6.5,7.4 0.3,-0.6 0.4,-0.5 m -3.7,0 0.4,-0.6 0.3,-0.5 m -8.8,-13.1 -0.1,0.6 -0.1,0.8 m -2.8,-2.5 -0.1,0.7 0,0.7 m -2.8,-2.5 -0.1,0.7 -0.1,0.7 m -2.8,-2.5 -0.1,0.7 -0.1,0.7 m -6.5,7.4 0.4,-0.6 0.4,-0.5 m -3.7,0 0.4,-0.6 0.3,-0.5 m -8.8,-13.1 -0.1,0.6 -0.1,0.7 m -2.8,-2.4 -0.1,0.6 -0.1,0.7 m -2.8,-2.4 0,0.6 -0.1,0.7 m -2.8,-2.4 -0.1,0.6 -0.1,0.7 m -6.5,7.5 0.4,-0.6 0.4,-0.6 m -3.7,0.1 0.3,-0.6 0.4,-0.6 m 5.9,2.2 -0.3,0.6 -0.4,0.5 m 3.7,0 -0.4,0.6 -0.4,0.5 m 3.7,0 -0.3,0.6 -0.4,0.5 m 3.7,0 -0.4,0.5 -0.4,0.6 m 3.8,0 -0.4,0.5 -0.4,0.6 m 3.7,0 -0.4,0.5 -0.3,0.6 m 12.5,3.3 -0.3,0.5 -0.4,0.6 m 3.7,-0.1 -0.4,0.6 -0.4,0.6 m 3.8,-0.1 -0.4,0.6 -0.4,0.6 m 3.7,-0.1 -0.3,0.6 -0.4,0.6 m 3.7,-0.1 -0.4,0.6 -0.4,0.5 m 3.7,0 -0.3,0.6 -0.4,0.5 m 12.6,3.3 -0.4,0.5 -0.4,0.6 m 3.7,0 -0.3,0.5 -0.4,0.6 m 3.7,0 -0.4,0.5 -0.4,0.6 m 3.7,0 -0.3,0.5 -0.4,0.6 m 3.7,0 -0.4,0.5 -0.4,0.6 m 3.8,0 -0.4,0.5 -0.4,0.6 m 12.6,3.2 -0.4,0.6 -0.4,0.5 m 3.7,0 -0.3,0.6 -0.4,0.5 m 3.7,0 -0.4,0.5 -0.4,0.6 m 3.8,0 -0.4,0.5 -0.4,0.6 m 3.7,0 -0.4,0.5 -0.3,0.6 m 3.7,0 -0.4,0.5 -0.4,0.6 m 3.7,0 -0.2,0.3 -0.1,0.2 m 9.2,2.8 -0.4,0.5 -0.3,0.6 m 3.7,-0.1 -0.4,0.6 -0.4,0.6 m 3.7,-0.1 -0.3,0.6 -0.4,0.6 m 3.7,-0.1 -0.4,0.6 -0.4,0.6 m -15.2,-11.4 0.7,-2.1 0.3,-1.6 m -1,3.7 -1.1,2.3 -1.4,2.5 m 13.4,-4.9 0.4,-0.6 0.3,-0.6 m -3.7,0.1 0.4,-0.6 0.4,-0.6 m -9.7,-2.1 0.4,-0.6 0.4,-0.5 m -3.7,0 0.4,-0.6 0.3,-0.5 m -3.7,0 0.4,-0.6 0.4,-0.5 m -3.7,0 0.4,-0.6 0.3,-0.5 m -3.7,0 0.4,-0.6 0.4,-0.5 m -3.8,0 0.4,-0.6 0.4,-0.5 m -3.7,0 0.4,-0.5 0.4,-0.6 m -6.6,-1.3 0.3,-0.3 0.2,-0.4 m -9.5,-2.3 0.4,-0.6 0.4,-0.5 m -3.8,0 0.4,-0.6 0.4,-0.5 m -3.7,0 0.4,-0.6 0.3,-0.5 m -3.7,0 0.4,-0.6 0.4,-0.5 m -3.7,0 0.4,-0.6 0.3,-0.5 m -6.6,-1.1 0.2,-0.3 m -9.1,-3 0.4,-0.5 0.3,-0.6 m -3.7,0.1 0.4,-0.6 0.4,-0.6 m -3.7,0.1 0.4,-0.6 0.3,-0.6 m -3.7,0.1 0.4,-0.6 0.4,-0.6 m -3.7,0.1 0.4,-0.6 0.3,-0.5 m -15.5,-4.4 0.4,-0.6 0.3,-0.5 m -3.7,0 0.4,-0.6 0.4,-0.5 m -3.8,0 0.4,-0.6 0.4,-0.5 m -3.7,0 0.4,-0.6 0.3,-0.5 m -3.7,0 0.4,-0.5 0.4,-0.6 m 46.8,18.3 -0.2,0.3 m 30.2,9.9 -0.3,0.5 -0.4,0.5 m 27.3,8.9 -0.2,0.4 -0.4,0.6 m 34.4,5.8 2.2,0.8 m -24.6,-9.1 11.6,4.3 m -14.5,-5.4 0.1,0.1 m -3.1,-1.1 0.1,0 m -3.1,-1.1 0.2,0 m -3.1,-1.1 0.1,0 m -3.1,-1.1 0.1,0 m -3,-1.1 0.1,0 m -3.1,-1.1 0.1,0 m -3.1,-1.1 0.2,0 m -3.1,-1.1 0.1,0.1 m -3.1,-1.2 0.1,0.1 m -3,-1.2 0.1,0.1 m -3.1,-1.2 0.1,0.1 m -3,-1.2 0.1,0.1 m -3.1,-1.2 0.1,0.1 m -3.1,-1.1 0.2,0 m -3.1,-1.1 0.1,0 m -3.1,-1.1 0.1,0 m -3,-1.1 0.1,0 m -3.1,-1.1 0.1,0 m -3,-1.1 0.1,0 m -3.1,-1.1 0.1,0 m -3.1,-1.1 0.2,0 m -3.1,-1.1 0.1,0.1 m -3.1,-1.2 0.1,0.1 m -3,-1.2 0.1,0.1 m -3.1,-1.2 0.1,0.1 m -3.1,-1.2 0.2,0.1 m -3.1,-1.1 0.1,0 m -3.1,-1.1 0.1,0 m -3,-1.1 0.1,0 m -3.1,-1.1 0.1,0 m -3,-1.1 0.1,0 m -3.1,-1.1 0.1,0 m -3.1,-1.1 0.2,0 m -3.1,-1.1 0.1,0 m -3.1,-1.1 0.1,0.1 m -3,-1.2 0.1,0.1 m -3.1,-1.2 0.1,0.1 m -3,-1.2 0.1,0.1 m -3.1,-1.2 0.1,0.1 m -3.1,-1.2 0.2,0.1 m -3.1,-1.1 0.1,0 m -3.1,-1.1 0.1,0 m 8.4,27.3 -0.1,-0.1 m 3.1,1.2 -0.1,-0.1 m 3.1,1.2 -0.2,-0.1 m 3.1,1.2 -0.1,-0.1 m 3.1,1.2 -0.1,-0.1 m 3,1.2 -0.1,-0.1 m 3.1,1.1 -0.1,0 m 3.1,1.1 -0.2,0 m 3.1,1.1 -0.1,0 m 3.1,1.1 -0.1,0 m 3,1.1 -0.1,0 m 3.1,1.1 -0.1,0 m 3,1.1 -0.1,0 m 3.1,1.1 -0.1,-0.1 m 3.1,1.2 -0.2,-0.1 m 3.1,1.2 -0.1,-0.1 m 3.1,1.2 -0.1,-0.1 m 3,1.2 -0.1,-0.1 m 3.1,1.2 -0.1,-0.1 m 3,1.1 -0.1,0 m 3.1,1.1 -0.1,0 m 3.1,1.1 -0.2,0 m 3.1,1.1 -0.1,0 m 3.1,1.1 -0.1,0 m 3,1.1 -0.1,0 m 3.1,1.1 -0.1,0 m 3.1,1.1 -0.2,0 m 3.1,1.1 -0.1,-0.1 m 3.1,1.2 -0.1,-0.1 m 3,1.2 -0.1,-0.1 m 3.1,1.2 -0.1,-0.1 m 3,1.2 -0.1,-0.1 m 3.1,1.1 -0.1,0 m 3.1,1.1 -0.2,0 m 3.1,1.1 -0.1,0 m 3.1,1.1 -0.1,0 m 3,1.1 -0.1,0 m 3.1,1.1 -0.1,0 m 13.1,4.8 -10.2,-3.7 m 23.2,8.5 -3.6,-1.3 m 13.4,-17.5 0.4,1.4 m -5.9,16 -1.3,0.8 m -283,-53.6 -3.5,-1.3 -6.8,-2.9 -6.8,-3.2 -6.8,-3.5 -6.7,-3.7 -6.6,-4 -6.2,-4.1 -6,-4.3 -5.5,-4.3 -5.1,-4.4 -4.6,-4.4 -4.1,-4.5 -3.4,-4.4 -0.8,-1.3 m 51.3,10.3 0.1,0.2 0.5,0.9 1.1,1.4 1.9,1.8 2.4,2 3,2.1 3.3,2 3.3,1.7 m 124.3,71.6 -118.3,-43.7 m 7.9,-21.9 118.3,43.7 M 242.2,15.8 l 0.1,-0.3 2,-2.8 2.5,-2.4 2.8,-2 1.3,-0.7 m 2,51.9 -2.9,-4.8 -3.9,-7 -3.1,-6.6 -2,-5.9 -1.1,-5 -0.3,-4.3 0.4,-4.1 0.8,-2.8 1.4,-3.2 0,-0.1 m 34.9,33.4 1.2,0.7 2.8,1.4 2.7,1 1.1,0.4 m -15,-9.4 0.4,0.5 1.2,1.3 1.7,1.5 2.4,1.6 1.5,1 m 7.8,3.5 0.3,0 1.6,0.1 1.5,-0.7 0.4,-0.5 M 260.9,19 l -0.2,0.5 0.1,2.7 0.7,3.3 1.3,3.9 2.1,4.7 2.8,5.2 2.4,3.9 m 40.3,12.3 2.6,1.4 3.2,1.5 1.6,0.7 m -17.7,-11.9 0.5,0.7 1.4,1.6 2,1.8 2.7,1.9 3,2 0.7,0.3 m -49.5,-32.7 0,-2.5 0.2,-0.7 m 56.7,39.5 123.1,45.4 m -59.2,-0.5 4.2,2.9 m -19.5,-9.8 -0.1,0.1 0,0.4 0,0.1 0,0.1 m -84.1,-78.4 17.9,27.8 m 65.9,48.3 0.2,0.2 0.2,0.3 0.1,0.5 0,0.4 -0.1,0.2 m -4.2,-4.7 3.8,3.1 m 4.8,3.2 -0.1,0.1 0,0.4 0,0.1 0,0.1 m -0.3,-2.3 0.2,0.2 0.2,0.4 0.1,0.4 -0.1,0.4 -0.1,0.2 m -11.1,-5.7 0,0 0.1,0 0.3,-0.2 0.1,-0.2 m 6.5,1.4 3.8,3.1 m -10.3,-4.5 0.2,-0.2 0.3,-0.3 0.3,-0.1 0.2,0 0.3,0 0.3,0.1 0.4,0.2 0.1,0.1 m 12.3,7.4 0.1,-0.1 0,-0.1 m 0.1,0 0.2,-0.4 0.7,-0.3 0.6,-0.2 1.1,0.2 1,0.3 m -13.8,-5 0.1,-0.2 0.3,-0.3 0.3,-0.1 0.3,0 0.3,0 0.3,0.1 0.4,0.2 0.1,0.1 m 10.8,6.5 0,0 0.1,0.1 m 104.5,29.2 1.3,2.3 1.7,3.8 0.9,3.6 0.1,3.5 -0.6,3.4 -1.3,3.2 m 0,0 -2,2.8 -2.6,2.3 -2.9,1.6 -3.3,1.1 -3.6,0.7 -4.4,0.1 -5.3,-0.6 -5.7,-1.2 -5.9,-1.7 -4.5,-1.5 m 7.9,-21.9 2.6,0.9 3,0.9 m 1.3,0.4 0.1,0 2.3,0.4 1.4,0 0.6,-0.1 -0.1,0.1 m -5.6,-0.8 1.3,0.4 M 271.2,3.9 l 7.1,2.7 m 5.9,13.4 -0.1,0.4 0,1.9 m -19.5,-17.8 1.6,-0.6 2.5,-0.4 2.3,0.4 m 7.7,2.9 1.5,0.8 1.7,1.8 1.2,2.4 0.8,3.1 0.3,3.7 -0.1,1.4 m 174.7,89.5 0,1.1 0.1,0.1 m -0.6,-3.2 0.4,1.4 0,0.5 m -16.5,-4.4 0.2,0 2.5,0.7 1.8,0.2 0.9,0 0.1,0 m -6.8,-1.4 1.3,0.5 M 258.6,6.2 l 0.1,0 0.7,0 1,-0.1 1.2,-0.4 1.6,-0.5 1.4,-0.7 m 188.6,88.4 3.3,3.9 11.5,14 7,9 4.1,5.7 2.7,3.9 0.2,0.4 m -24.4,-23.4 0.1,0.1 0.1,0.1 0.1,0.2 0.1,0.1 0.1,0.1 0,0.2 0.1,0.1 0.1,0.2 m -2.1,-2.6 0.4,0.5 1,1 m 6.8,11.8 1.1,0.4 1.5,0.3 0.8,0.1 m -29.4,-41.9 17.8,27.8 M 425,60.7 455.7,72.1 m -43.4,-5.5 1.8,-2 2.7,-2.3 2.9,-1.5 2.6,-0.5 2.3,0.3 0.8,0.4 m 30.2,11.1 1.9,0.9 1.7,1.8 1.3,2.3 0.8,3 0.4,3.7 -0.3,4 -0.7,4.3 -1.2,4.2 -0.6,1.5 m 0,0 -0.4,1.1 -0.1,0.2 m -344.5,214.2 -3.9,-1.6 -6.5,-3.4 -6.1,-4.1 -5.6,-5 -5.1,-5.5 -4.5,-6.3 -3.9,-6.7 -3.2,-7.2 -2.4,-7.5 -1.7,-7.8 -0.8,-7.9 -0.1,-8 0.2,-1.9 m 13.7,-49 4.8,-10.9 5.2,-9.9 5.3,-8.8 5.5,-7.9 5.4,-6.4 6.4,-6.3 6.4,-5.3 1.5,-1.1 m -5.4,125.9 0.9,-0.1 m 10.4,-126 14.7,5.5 m 0,0 1.8,0.9 1.7,1.8 1.3,2.3 0.8,3 0.3,3.7 -0.2,4 -0.7,4.2 -1.3,4.3 -1.6,4.1 -2,3.9 -0.9,1.6 m 0,0 -0.3,0.4 -0.1,0.1 m -1.6,149.5 -28.4,-10.6 m 10.6,-178.6 0.1,-0.1 1.4,-0.6 1.2,0 M -36.2,-38.3 -5,-65.2 m -43.9,48.3 12.1,-10.5 m -29,44.2 -0.1,-0.7 -0.1,-2.4 0.3,-2.7 1.3,-4.3 2.2,-4 3.8,-4.7 5.4,-5.3 2.4,-2.1 m -60.7,324.6 -2,-0.8 m -31.7,-50 0.1,-0.1 m 10.3,35.2 0.3,0.2 m 3.8,4.4 0.2,0.3 m -16.8,-2.9 3.3,-2.9 m 0.4,17 -0.2,-0.1 m -3.8,-4.5 -0.2,-0.3 m 11.4,-133.5 -0.4,-1.3 m 6.5,-17.4 1.1,-0.7 m 4.7,25.6 -9.9,-3.7 m 8.4,-22.6 9.8,3.7 m 2.1,2.5 0.3,1.3 m -6.4,17.4 -1.1,0.7 m 16.8,-7.6 0.2,-0.3 0.1,-0.3 m 62.1,-113.8 -0.4,-1.3 m 6.5,-17.5 1.1,-0.6 m 4.7,25.6 -9.9,-3.7 m 8.4,-22.6 9.8,3.7 m 2.1,2.5 0.3,1.3 m -6.4,17.4 -1.1,0.7 m -15.5,30 -0.3,-1.3 m 6.4,-17.4 1.1,-0.7 m 4.7,25.6 -9.8,-3.6 m 8.3,-22.6 9.9,3.6 m 2,2.6 0.4,1.2 m -6.5,17.5 -1.1,0.7 m -109.2,40.3 -0.4,-1.2 m 6.5,-17.5 1.1,-0.7 m 4.7,25.6 -9.9,-3.6 m 8.4,-22.6 9.8,3.6 m 2.1,2.6 0.3,1.2 m -6.4,17.5 -1.1,0.7 M -126,349.1 -161.5,336 m 398.6,-117.1 -46.8,40.4 m 220.5,1411.5 -156.1,134.6 m 52,-173 104.1,38.4 m -260.2,96.1 156.1,-134.5 m -52,173 -104.1,-38.5 m 0,0 -8.6,-1500 M 141,96.1 130.5,-1738.6 m 176.2,3371 -8.8,-1535.9 m -0.6,-97 -10.7,-1872.7 m -156.1,134.6 156.1,-134.6 M 410.8,1670.8 402,137.7 m -0.3,-47.6 -11,-1924.8 m -104.1,-38.5 104.1,38.5 M 3.1,27.9 5.2,25.7 7.1,22.7 8.7,19.3 9.9,15.6 10.6,12 10.8,8.7 10.3,6 9.3,4 7.9,2.9 M 0.2,29.6 0.9,29.3 3.1,27.9 m -101.4,223.3 2.8,1 m -2.8,-1 0.1,12.2 m 0.2,39.2 0,2.8 m 2.5,-53.2 0.1,12.3 m 0.2,35.7 0,1.3 m -17.8,16.9 -0.1,-3.9 m 14.8,-63.3 -9.9,8.5 m -4.9,55.4 -0.7,0.7 m -8.5,-17.1 -1.3,0.2 -2.3,0.8 -1.7,1.3 -0.7,1.4 0,0.4 m 0.9,-13.9 -0.2,0.2 -0.7,1.5 0,0.3 m 4,34.4 0.1,-0.1 1,-0.6 1.5,-0.3 1.5,0 0.2,0 m -33.1,-7.1 -1.9,1.6 m 0,0 6.6,2.4 m 30.3,1.5 -0.5,-0.1 -2.6,-0.2 -1.5,0.1 m -30.4,-5.3 6.5,2.4 m -6.5,-2.4 -0.2,-32.4 m -1.7,34 -0.1,-32.4 m 24.6,3.6 2.2,0.8 m -2.2,-3 0,2.2 m 2,-19.8 0,0.3 m -1.9,33.8 0,-2.4 m 0,0 2.1,0.7 m 0,-11.8 0,11.8 m 6,-3.9 -1.7,0.3 -2.2,0.9 -1.5,1.2 -0.6,1.5 m -2.1,1.6 1.2,0.4 m 1.8,-15.7 -0.4,0.4 -0.5,1.5 m 763.4,-202.4 -0.3,0 -1.2,-0.3 -1.7,-0.6 -2,-0.8 -2,-0.9 -1.6,-0.9 -1.1,-0.8 -0.3,-0.4 m -47.3,132.7 -0.5,0.1 -1.1,-0.3 -1.7,-0.5 -2,-0.9 -2,-0.9 -1.7,-0.9 -1,-0.8 -0.4,-0.4 m -65.2,10.1 -0.4,0 -1.2,-0.3 -1.7,-0.5 -2,-0.9 -1.9,-0.9 -1.7,-0.9 -1.1,-0.8 -0.3,-0.3 m -47.2,132.6 -0.5,0.1 -1.2,-0.2 -1.7,-0.6 -2,-0.9 -1.9,-0.9 -1.7,-0.9 -1.1,-0.7 -0.3,-0.5 M 401.7,87 l 1.8,-2.8 2,-3.9 1.5,-4.2 1.1,-4.3 0.6,-4.1 -0.1,-3.7 -0.5,-3.1 -1.2,-2.3 -0.4,-0.6 m 3,10.4 0.2,2.2 -0.3,3.2 -0.8,3.5 -1.3,3.4 -1.6,3 -1.9,2.5 -1.3,1.2 m 17.6,-12.9 -0.2,3.2 -0.9,3.4 -1.2,3.4 -1.7,3.1 -1.9,2.5 -2,1.7 -2,0.8 -1.5,-0.1 m 8.8,-23.9 0.2,0 1.3,1.2 0.8,2 0.3,2.7 m 0.4,1.1 -0.3,-2.5 0,-0.3 m -6.8,18.2 1.4,-1.1 1.8,-2.2 1.6,-2.8 1.3,-3.1 0.8,-3.2 0.2,-3 m -17.8,184.1 0.9,-2.2 0.6,-2.7 m 0.1,8.4 1,-1.6 1.3,-3 0.5,-2.7 m 0.2,8.4 1,-1.6 1.2,-3 0.6,-2.7 m -0.7,9.6 0.2,-0.2 1.7,-2.6 1.2,-3 0.6,-3 0,-0.6 m -0.7,10.5 0.1,-0.2 0.7,-1 m 5.9,2.2 1,-1.6 1.3,-3 0.5,-2.7 m 0.1,8.4 1.1,-1.6 1.2,-3 0.6,-2.7 m 0.1,8.4 1,-1.6 1.3,-3.1 0.5,-2.6 m 0.2,8.4 1,-1.7 1.2,-3 0.6,-2.6 m 0.1,8.4 1.1,-1.7 1.2,-3 0.5,-2.7 m 0.2,8.5 1,-1.7 1.2,-3 0.6,-2.7 m 0.1,8.4 1.1,-1.6 1.2,-3 0.6,-3 m 6,10.9 1,-1.6 1.3,-3 0.5,-2.7 m 0.2,8.4 1,-1.6 1.2,-3 0.6,-2.7 m 0.1,8.4 1.1,-1.6 1.2,-3 0.5,-2.7 m 0.2,8.4 1,-1.6 m 0,0 0,0 m -0.4,0.5 0.1,-0.2 0.2,-0.2 0.1,-0.1 m -0.4,0.5 -2.2,3.5 -2.5,2.5 -2.5,1.1 -1.5,-0.4 m 6.3,-21.4 0.6,0.1 1.1,2 0.2,3.1 -0.7,4.1 -1.6,4.1 -2.3,3.6 -2.6,2.6 -2.5,1.1 -1.4,-0.4 m 6.2,-21.4 0.6,0.1 1.1,2 0.3,3.1 -0.8,4.1 -1.6,4.1 -2.2,3.6 -2.7,2.6 -2.4,1.1 -1.5,-0.3 m 6.2,-21.5 0.7,0.1 1.1,2 0.2,3.1 -0.8,4.1 -1.5,4.1 -2.3,3.6 -2.6,2.6 -2.5,1.1 -1.5,-0.3 m 6.3,-21.5 0.6,0.1 1.1,2 0.2,3.2 -0.7,4 -1.6,4.1 -2.2,3.6 -2.7,2.6 -2.5,1.1 -1.4,-0.3 m 6.2,-21.5 0.6,0.2 1.2,1.9 0.2,3.2 -0.8,4 -1.6,4.1 -2.2,3.6 -2.6,2.6 -2.5,1.1 -1.5,-0.3 m 6.3,-21.5 0.6,0.2 1.1,1.9 0.2,3.2 -0.7,4 -1.6,4.1 -2.2,3.6 -2.7,2.6 -2.5,1.1 -1.4,-0.3 m 6.2,-21.5 0.6,0.2 1.1,1.9 0.3,3.2 -0.8,4 -1.6,4.1 -2.2,3.6 -2.6,2.6 -2.5,1.1 -1.5,-0.3 m 6.3,-21.4 0.6,0.1 1.1,1.9 0.2,3.2 -0.7,4 -1.6,4.1 -2.3,3.6 -2.6,2.6 -2.5,1.1 -1.4,-0.3 m 6.2,-21.4 0.6,0.1 1.1,2 0.3,3.1 -0.8,4 -1.6,4.1 -2.2,3.6 -2.7,2.6 -2.5,1.1 -1.4,-0.3 m 6.2,-21.4 0.7,0.1 1.1,2 0.2,3.1 -0.8,4 -1.5,4.1 -2.3,3.6 -2.6,2.6 -2.5,1.2 -1.5,-0.4 m 6.3,-21.4 0.6,0.1 1.1,2 0.2,3.1 -0.7,4 -1.6,4.1 -2.2,3.6 -2.7,2.7 -2.5,1.1 -1.4,-0.4 m 6.2,-21.4 0.6,0.1 1.2,2 0.2,3.1 -0.8,4.1 -1.6,4 -2.2,3.6 -2.6,2.7 -2.5,1.1 -1.5,-0.4 m 6.3,-21.4 0.6,0.1 1.1,2 0.2,3.1 -0.7,4.1 -1.6,4 -2.2,3.7 -2.7,2.6 -2.5,1.1 -1.4,-0.4 m 6.2,-21.4 0.6,0.1 1.1,2 0.3,3.1 -0.8,4.1 -1.6,4.1 -2.2,3.6 -2.6,2.6 -2.5,1.1 -1.5,-0.4 m 6.3,-21.4 0.6,0.1 1.1,2 0.2,3.1 -0.7,4.1 -1.6,4.1 -2.3,3.6 -2.6,2.6 -2.5,1.1 -0.8,-0.2 m 5.6,-21.6 0.6,0.1 1.1,2 0.2,3.1 -0.7,4.1 -1.6,4.1 -2.2,3.6 -2.7,2.6 -0.4,0.2 m 2.7,-20.9 0.7,0.1 1.1,2 0.2,3.1 -0.8,4.1 -1.5,4.1 -2.3,3.6 -0.2,0.2 m -0.1,-18.3 0.6,0.2 1.1,1.9 0.2,3.2 -0.7,4 -1,2.5 m 0,-0.3 0.8,-2.1 0.8,-4 -0.2,-3.2 -1.1,-2 -0.6,-0.2 m 0.3,18 2.2,-3.4 1.6,-4.1 0.8,-4.1 -0.2,-3.1 -1.1,-2.1 -1.8,-0.4 -0.6,0.3 m -0.8,20.8 0.1,-0.1 2.7,-2.5 2.2,-3.6 1.6,-4.1 0.8,-4.1 -0.2,-3.1 -1,-2.1 -1.8,-0.4 -0.6,0.3 m -3.8,21.6 0.6,0.2 2.5,-1.1 2.6,-2.6 2.3,-3.5 1.6,-4.1 0.8,-4.1 -0.2,-3.1 -1.1,-2.1 -1.8,-0.4 -0.5,0.3 m -5.8,20.6 0.4,0.6 2.1,0.6 2.5,-1.1 2.7,-2.6 2.2,-3.5 1.6,-4.1 0.8,-4.1 -0.2,-3.2 -1,-2 -1.8,-0.4 -0.6,0.3 m -5.8,20.6 0.4,0.6 2.2,0.5 2.5,-1 2.6,-2.6 2.3,-3.5 1.6,-4.1 0.8,-4.1 -0.2,-3.2 -1.1,-2 -1.8,-0.4 -0.5,0.3 m -5.8,20.6 0.4,0.6 2.2,0.5 2.5,-1 2.6,-2.6 2.2,-3.6 1.7,-4 0.8,-4.1 -0.2,-3.2 -1.1,-2 -1.8,-0.4 -0.6,0.3 m -5.7,20.6 0.3,0.6 2.2,0.5 2.5,-1 2.7,-2.6 2.2,-3.6 1.6,-4 0.8,-4.1 -0.2,-3.2 -1.1,-2 -1.8,-0.4 -0.5,0.3 m -5.8,20.6 0.4,0.5 2.2,0.6 2.5,-1 2.6,-2.6 2.3,-3.6 1.6,-4 0.8,-4.1 -0.2,-3.2 -1.1,-2 -1.8,-0.4 -0.6,0.3 m -5.7,20.6 0.4,0.5 2.1,0.6 2.5,-1 2.7,-2.6 2.2,-3.6 1.6,-4.1 0.8,-4 -0.2,-3.2 -1,-2 -1.8,-0.4 -0.6,0.3 m -5.8,20.6 0.4,0.5 2.2,0.6 2.5,-1 2.6,-2.6 2.3,-3.6 1.6,-4.1 0.8,-4 -0.2,-3.2 -1.1,-2 -1.8,-0.5 -0.5,0.4 m -5.8,20.6 0.4,0.5 2.2,0.6 2.4,-1 2.7,-2.6 2.2,-3.6 1.7,-4.1 0.7,-4 -0.1,-3.2 -1.1,-2 -1.8,-0.5 -0.6,0.3 m -5.7,20.6 0.3,0.6 2.2,0.6 2.5,-1.1 2.6,-2.5 2.3,-3.6 1.6,-4.1 0.8,-4 -0.2,-3.2 -1.1,-2 -1.8,-0.5 -0.5,0.3 m -5.8,20.6 0.4,0.6 2.2,0.6 2.5,-1.1 2.6,-2.5 2.3,-3.6 1.6,-4.1 0.8,-4 -0.2,-3.2 -1.1,-2 -1.8,-0.5 -0.6,0.3 m -5.7,20.6 0.4,0.6 2.1,0.6 2.5,-1.1 2.7,-2.5 2.2,-3.6 1.6,-4.1 0.8,-4.1 -0.2,-3.1 -1.1,-2.1 -1.7,-0.4 -0.6,0.3 m -5.8,20.6 0.4,0.6 2.2,0.6 2.5,-1.1 2.6,-2.5 2.3,-3.6 1.6,-4.1 0.8,-4.1 -0.2,-3.1 -1.1,-2.1 -1.8,-0.4 -0.5,0.3 m -3.7,3.3 -0.2,0.3 -1.9,3.7 -0.3,1.1 m 0.3,12.2 0.4,0.6 2.1,0.6 2.5,-1.1 2.7,-2.6 2.2,-3.5 1.6,-4.1 0.8,-4.1 -0.2,-3.1 -1,-2.1 -1.8,-0.4 -0.6,0.3 m -5.8,20.6 0.4,0.6 2.2,0.6 2.5,-1.1 2.6,-2.6 2.3,-3.5 1.6,-4.1 0.8,-4.1 -0.2,-3.1 -1.1,-2.1 -1.8,-0.4 -0.5,0.3 m -5.8,20.6 0.4,0.6 2.2,0.5 2.4,-1 2.7,-2.6 2.2,-3.5 1.7,-4.1 0.7,-4.1 -0.1,-3.2 -1.1,-2 -1.8,-0.4 -0.6,0.3 m -5.7,20.6 0.3,0.6 2.2,0.5 2.5,-1 2.7,-2.6 2.2,-3.6 m 0,0 -0.7,-0.3 m -1.9,-0.8 1.1,0.4 0.3,0.1 0.5,0.3 m -1.8,-1.1 -0.1,0.3 m 3.3,-5.4 -1.6,2.1 -1.5,2.5 -0.4,0.7 m 2.8,1.2 0.7,-1.8 0.2,-2.7 -0.2,-2 m -3.5,5.5 -0.1,0.1 m 0.1,-0.3 0,0.2 m 12,-9.4 0,0 0.6,0.4 0.9,0.9 1.2,1.1 1.5,1.3 1.7,1.2 1.7,0.7 1.3,0.1 1,-0.2 0.8,-0.6 0,-0.1 m -9.2,19.8 0.1,0.1 0.1,-0.1 -0.4,-0.5 -1,-0.7 -1.5,-0.7 -1.7,-0.4 -1.7,-0.4 -1.9,-0.3 -1.4,-0.4 m 20.9,-16.4 0,0 1.3,1 0.7,1.8 0.3,2.6 -0.3,3 -0.8,3.2 -1.3,3.1 -1.6,2.8 -1.8,2.1 -1.9,1.4 -1.7,0.4 -0.8,-0.2 m -14.1,-21.4 -0.4,0.5 -0.4,0.6 -0.4,0.6 -0.4,0.7 -0.4,0.6 -0.3,0.7 -0.4,0.7 m 21.2,15.6 1.6,-1.4 1.7,-2.3 1.5,-2.9 0.9,-3.1 0.5,-3 -0.1,-2.6 -0.2,-0.7 m -23.8,-182 0.9,-2.2 0.5,-2.3 m 0.2,8 1.1,-1.6 1.2,-3 0.6,-2.7 m -0.7,9.5 0.1,-0.1 1.7,-2.6 1.3,-3 0.6,-3 -0.1,-0.6 m -0.6,10.4 0.1,-0.1 0.6,-1 m 6,2.2 1,-1.7 1.2,-3 0.6,-2.6 m 0.1,8.4 1.1,-1.7 1.2,-3 0.5,-2.6 m 0.2,8.4 1,-1.7 1.3,-3 0.5,-2.7 m 0.1,8.4 1.1,-1.6 1.2,-3 0.6,-2.7 m 0.1,8.4 1,-1.6 1.3,-3 0.5,-2.7 m 0.2,8.4 1,-1.6 1.2,-3 0.6,-2.7 m -0.7,9.6 0.2,-0.2 1.7,-2.6 1.2,-3 0.6,-3 0,-0.6 m -0.7,10.5 0.1,-0.2 0.7,-1 m 5.9,2.2 1,-1.6 1.3,-3 0.5,-2.7 m 0.1,8.4 1.1,-1.6 1.2,-3 0.6,-2.7 m 0.1,8.4 1,-1.6 1.3,-3 0.5,-2.7 m 0.2,8.4 1,-1.6 1.2,-3 0.6,-2.7 m 0.1,8.4 1.1,-1.6 1.2,-3.1 0.5,-2.6 m 0.2,8.4 1,-1.7 1.2,-3 0.6,-2.6 m -0.7,9.5 0.2,-0.1 1.7,-2.7 1.2,-3 0.6,-2.9 0,-0.7 m -0.7,10.5 0.1,-0.1 0.7,-1 m 5.9,2.1 1,-1.6 1.3,-3 0.5,-2.7 m 0.2,8.4 1,-1.6 1.2,-3 0.6,-2.7 m 0.1,8.4 1.1,-1.6 1.2,-3 0.5,-2.7 m 0.2,8.4 1,-1.6 1.2,-3 0.6,-2.7 m 0.1,8.4 1.1,-1.6 1.2,-3 0.6,-2.7 m 0.1,8.4 1,-1.6 1.3,-3 0.5,-2.7 m -0.6,9.5 0.1,-0.1 1.7,-2.6 1.2,-3 0.6,-3 0,-0.6 m -0.7,10.4 0.1,-0.1 0.7,-1 m 5.9,2.2 1.1,-1.7 1.2,-3 0.5,-2.6 m 0.2,8.4 1,-1.7 1.3,-3 0.5,-2.6 m 0.1,8.4 1.1,-1.7 1.2,-3 0.6,-2.7 m 0.1,8.4 1,-1.6 1.3,-3 0.5,-2.7 m 0.2,8.4 1,-1.6 1.2,-3 0.6,-2.7 m 0.1,8.4 1.1,-1.6 1.2,-3 0.5,-2.7 m 0.2,8.4 1,-1.6 1.2,-3 0.7,-3 m 5.9,10.9 1.1,-1.6 1.2,-3 0.6,-2.7 m 0.1,8.4 1,-1.6 1.3,-3 0.5,-2.7 m 0.2,8.4 1,-1.6 1.2,-3 0.6,-2.7 m 0.1,8.4 1.1,-1.6 m 0,0 -0.1,0 m -0.4,0.5 0.2,-0.2 0.1,-0.2 0.1,-0.1 m -0.4,0.5 -2.1,3.4 -2.6,2.6 -2.5,1.1 -1.4,-0.4 m 6.2,-21.4 0.6,0.1 1.1,2 0.3,3.1 -0.8,4 -1.6,4.1 -2.2,3.6 -2.7,2.7 -2.5,1.1 -1.4,-0.4 m 6.2,-21.4 0.7,0.1 1.1,2 0.2,3.1 -0.8,4.1 -1.5,4 -2.3,3.7 -2.6,2.6 -2.5,1.1 -1.5,-0.4 m 6.3,-21.4 0.6,0.1 1.1,2 0.2,3.1 -0.7,4.1 -1.6,4.1 -2.2,3.6 -2.7,2.6 -2.5,1.1 -1.4,-0.4 m 6.2,-21.4 0.6,0.1 1.2,2 0.2,3.1 -0.8,4.1 -1.6,4.1 -2.2,3.6 -2.6,2.6 -2.5,1.1 -1.5,-0.3 m 6.3,-21.5 0.6,0.1 1.1,2 0.2,3.1 -0.7,4.1 -1.6,4.1 -2.2,3.6 -2.7,2.6 -2.5,1.1 -1.4,-0.3 m 6.2,-21.5 0.6,0.1 1.1,2 0.3,3.1 -0.8,4.1 -1.6,4.1 -2.2,3.6 -2.6,2.6 -2.5,1.1 -1.5,-0.3 m 6.3,-21.5 0.6,0.2 1.1,1.9 0.2,3.2 -0.7,4 -1.6,4.1 -2.3,3.6 -2.6,2.6 -2.5,1.1 -1.5,-0.3 m 6.3,-21.5 0.6,0.2 1.1,1.9 0.2,3.2 -0.7,4 -1.6,4.1 -2.2,3.6 -2.7,2.6 -2.5,1.1 -1.4,-0.3 m 6.2,-21.5 0.7,0.2 1.1,1.9 0.2,3.2 -0.8,4 -1.5,4.1 -2.3,3.6 -2.6,2.6 -2.5,1.1 -1.5,-0.3 m 6.3,-21.5 0.6,0.2 1.1,1.9 0.2,3.2 -0.7,4 -1.6,4.1 -2.2,3.6 -2.7,2.6 -2.5,1.1 -1.4,-0.3 m 6.2,-21.4 0.6,0.1 1.2,1.9 0.2,3.2 -0.8,4 -1.6,4.1 -2.2,3.6 -2.6,2.6 -2.5,1.1 -1.5,-0.3 m 6.3,-21.4 0.6,0.1 1.1,2 0.2,3.1 -0.7,4 -1.6,4.1 -2.3,3.6 -2.6,2.6 -2.5,1.1 -1.4,-0.3 m 6.2,-21.4 0.6,0.1 1.1,2 0.3,3.1 -0.8,4 -1.6,4.1 -2.2,3.6 -2.7,2.7 -2.4,1.1 -1.5,-0.4 m 6.3,-21.4 0.6,0.1 1.1,2 0.2,3.1 -0.8,4 -1.5,4.1 -2.3,3.6 -2.6,2.7 -2.5,1.1 -1.5,-0.4 m 6.3,-21.4 0.6,0.1 1.1,2 0.2,3.1 -0.7,4.1 -1.6,4 -2.2,3.6 -2.7,2.7 -2.5,1.1 -1.4,-0.4 m 6.2,-21.4 0.7,0.1 1.1,2 0.2,3.1 -0.8,4.1 -1.6,4 -2.2,3.7 -2.6,2.6 -2.5,1.1 -1.5,-0.4 m 6.3,-21.4 0.6,0.1 1.1,2 0.2,3.1 -0.7,4.1 -1.6,4.1 -2.2,3.6 -2.7,2.6 -2.5,1.1 -1.4,-0.4 m 6.2,-21.4 0.6,0.1 1.1,2 0.3,3.1 -0.8,4.1 -1.6,4.1 -2.2,3.6 -2.6,2.6 -2.5,1.1 -1.5,-0.3 m 6.3,-21.5 0.6,0.1 1.1,2 0.2,3.1 -0.7,4.1 -1.6,4.1 -2.3,3.6 -2.6,2.6 -2.5,1.1 -1.4,-0.3 m 6.2,-21.5 0.6,0.1 1.1,2 0.3,3.2 -0.8,4 -1.6,4.1 -2.2,3.6 -2.7,2.6 -2.5,1.1 -1.4,-0.3 m 6.2,-21.5 0.7,0.2 1.1,1.9 0.2,3.2 -0.8,4 -1.5,4.1 -2.3,3.6 -2.6,2.6 -2.5,1.1 -1.5,-0.3 m 6.3,-21.5 0.6,0.2 1.1,1.9 0.2,3.2 -0.7,4 -1.6,4.1 -2.2,3.6 -2.7,2.6 -2.5,1.1 -1.4,-0.3 m 6.2,-21.5 0.6,0.2 1.2,1.9 0.2,3.2 -0.8,4 -1.6,4.1 -2.2,3.6 -2.6,2.6 -2.5,1.1 -1.5,-0.3 m 6.3,-21.4 0.6,0.1 1.1,1.9 0.2,3.2 -0.7,4 -1.6,4.1 -2.2,3.6 -2.7,2.6 -2.5,1.1 -1.4,-0.3 m 6.2,-21.4 0.6,0.1 1.1,2 0.3,3.1 -0.8,4 -1.6,4.1 -2.2,3.6 -2.6,2.6 -2.5,1.1 -1.5,-0.3 m 6.3,-21.4 0.6,0.1 1.1,2 0.2,3.1 -0.7,4 -1.6,4.1 -2.3,3.6 -2.6,2.7 -2.5,1.1 -1.5,-0.4 m 6.3,-21.4 0.6,0.1 1.1,2 0.2,3.1 -0.7,4 -1.6,4.1 -2.2,3.6 -2.7,2.7 -2.5,1.1 -1.4,-0.4 m 6.2,-21.4 0.7,0.1 1.1,2 0.2,3.1 -0.8,4.1 -1.5,4 -2.3,3.6 -2.6,2.7 -2.5,1.1 -1.5,-0.4 m 6.3,-21.4 0.6,0.1 1.1,2 0.2,3.1 -0.7,4.1 -1.6,4 -2.2,3.7 -2.7,2.6 -2.5,1.1 -1.4,-0.4 m 6.2,-21.4 0.6,0.1 1.2,2 0.2,3.1 -0.8,4.1 -1.6,4.1 -2.2,3.6 -2.6,2.6 -2.5,1.1 -1.5,-0.4 m 6.3,-21.4 0.6,0.1 1.1,2 0.2,3.1 -0.7,4.1 -1.6,4.1 -2.2,3.6 -2.7,2.6 -2.5,1.1 -1.4,-0.3 m 6.2,-21.5 0.6,0.1 1.1,2 0.3,3.1 -0.8,4.1 -1.6,4.1 -2.2,3.6 -2.7,2.6 -2.4,1.1 -1.5,-0.3 m 6.3,-21.5 0.6,0.1 1.1,2 0.2,3.2 -0.7,4 -1.6,4.1 -2.3,3.6 -2.6,2.6 -2.5,1.1 -1.5,-0.3 m 6.3,-21.5 0.6,0.2 1.1,1.9 0.2,3.2 -0.7,4 -1.6,4.1 -2.2,3.6 -2.7,2.6 -2.5,1.1 -1.4,-0.3 m 6.2,-21.5 0.7,0.2 1.1,1.9 0.2,3.2 -0.8,4 -1.6,4.1 -2.2,3.6 -2.6,2.6 -2.5,1.1 -1.5,-0.3 m 6.3,-21.5 0.6,0.2 1.1,1.9 0.2,3.2 -0.7,4 -1.6,4.1 -2.2,3.6 -2.7,2.6 -2.5,1.1 -1.4,-0.3 m 6.2,-21.4 0.6,0.1 1.1,1.9 0.3,3.2 -0.8,4 -1.6,4.1 -2.2,3.6 -2.6,2.6 -2.5,1.1 -1.5,-0.3 m 6.3,-21.4 0.6,0.1 1.1,2 0.2,3.1 -0.7,4 -1.6,4.1 -2.3,3.6 -2.6,2.6 -1.9,0.9 m 4.2,-21.5 0.6,0.1 1.1,2 0.3,3.1 -0.8,4 -1.6,4.1 -2.2,3.6 -2.7,2.6 -0.4,0.3 m 2.7,-20.9 0.7,0.1 1.1,2 0.2,3.1 -0.8,4 -1.5,4.1 -2.3,3.6 -1.7,1.8 m 1.4,-19.8 0.6,0.1 1.1,2 0.2,3.1 -0.7,4 -1.6,4.1 -2.2,3.6 -0.6,0.6 m 0.2,-18.6 0.6,0.1 1.2,2 0.2,3.1 -0.8,4.1 -1.6,4 -1.5,2.5 m -1,-16.9 0.6,0.1 1.1,2 0.2,3.1 -0.7,4.1 -1.6,4.1 -0.9,1.5 m -2.2,-2.7 0.5,-1.2 m 1.6,3.8 0.8,-1.3 1.6,-4.1 0.8,-4.1 -0.2,-3.2 -1.1,-2 -0.6,-0.1 m 0.7,17.3 1.8,-2.7 1.6,-4.1 0.8,-4.1 -0.2,-3.2 -1.1,-2 -1.8,-0.4 -0.6,0.3 m 1.5,18.6 0.5,-0.5 2.2,-3.6 1.6,-4 0.8,-4.1 -0.2,-3.2 -1.1,-2 -1.7,-0.4 -0.6,0.3 m 0.3,19.7 1.6,-1.6 2.3,-3.6 1.6,-4 0.8,-4.1 -0.2,-3.2 -1.1,-2 -1.8,-0.4 -0.5,0.3 m -0.9,20.7 0.1,0 2.7,-2.6 2.2,-3.6 1.6,-4.1 0.8,-4 -0.2,-3.2 -1,-2 -1.8,-0.4 -0.6,0.3 m -2.5,21.4 1.8,-0.7 2.6,-2.6 2.3,-3.6 1.6,-4.1 0.8,-4 -0.2,-3.2 -1.1,-2 -1.8,-0.4 -0.5,0.3 m -4.6,21.3 1.4,0.4 2.4,-1 2.7,-2.6 2.2,-3.6 1.7,-4.1 0.7,-4 -0.1,-3.2 -1.1,-2 -1.8,-0.5 -0.6,0.4 m -5.7,20.6 0.3,0.5 2.2,0.6 2.5,-1 2.7,-2.6 2.2,-3.6 1.6,-4.1 0.8,-4 -0.2,-3.2 -1.1,-2 -1.8,-0.5 -0.5,0.3 m -5.8,20.6 0.4,0.6 2.2,0.6 2.5,-1.1 2.6,-2.5 2.3,-3.6 1.6,-4.1 0.8,-4 -0.2,-3.2 -1.1,-2 -1.8,-0.5 -0.6,0.3 m -5.7,20.6 0.4,0.6 2.1,0.6 2.5,-1.1 2.7,-2.5 2.2,-3.6 1.6,-4.1 0.8,-4 -0.2,-3.2 -1,-2 -1.8,-0.5 -0.6,0.3 m -5.8,20.6 0.4,0.6 2.2,0.6 2.5,-1.1 2.6,-2.5 2.3,-3.6 1.6,-4.1 0.8,-4.1 -0.2,-3.1 -1.1,-2.1 -1.8,-0.4 -0.5,0.3 m -5.8,20.6 0.4,0.6 2.1,0.6 2.5,-1.1 2.7,-2.5 2.2,-3.6 1.6,-4.1 0.8,-4.1 -0.2,-3.1 -1,-2.1 -1.8,-0.4 -0.6,0.3 m -5.8,20.6 0.4,0.6 2.2,0.6 2.5,-1.1 2.6,-2.6 2.3,-3.5 1.6,-4.1 0.8,-4.1 -0.2,-3.1 -1.1,-2.1 -1.8,-0.4 -0.5,0.3 m -5.8,20.6 0.4,0.6 2.2,0.6 2.4,-1.1 2.7,-2.6 2.2,-3.5 1.7,-4.1 0.7,-4.1 -0.1,-3.2 -1.1,-2 -1.8,-0.4 -0.6,0.3 m -5.7,20.6 0.3,0.6 2.2,0.5 2.5,-1 2.7,-2.6 2.2,-3.5 1.6,-4.1 0.8,-4.1 -0.2,-3.2 -1.1,-2 -1.8,-0.4 -0.5,0.3 m -5.8,20.6 0.4,0.6 2.2,0.5 2.5,-1 2.6,-2.6 2.3,-3.6 1.6,-4 0.8,-4.1 -0.2,-3.2 -1.1,-2 -1.8,-0.4 -0.6,0.3 m -5.7,20.6 0.4,0.6 2.1,0.5 2.5,-1 2.7,-2.6 2.2,-3.6 1.6,-4 0.8,-4.1 -0.2,-3.2 -1,-2 -1.8,-0.4 -0.6,0.3 m -5.8,20.6 0.4,0.5 2.2,0.6 2.5,-1 2.6,-2.6 2.3,-3.6 1.6,-4 0.8,-4.1 -0.2,-3.2 -1.1,-2 -1.8,-0.4 -0.5,0.3 m -5.8,20.6 0.4,0.5 2.2,0.6 2.4,-1 2.7,-2.6 2.2,-3.6 1.7,-4.1 0.7,-4 -0.1,-3.2 -1.1,-2 -1.8,-0.4 -0.6,0.3 m -5.8,20.6 0.4,0.5 2.2,0.6 2.5,-1 2.6,-2.6 2.3,-3.6 1.6,-4.1 0.8,-4 -0.2,-3.2 -1.1,-2 -1.8,-0.5 -0.5,0.4 m -5.8,20.6 0.4,0.5 2.2,0.6 2.5,-1 2.6,-2.6 2.3,-3.6 1.6,-4.1 0.8,-4 -0.2,-3.2 -1.1,-2 -1.8,-0.5 -0.6,0.3 m -5.7,20.6 0.3,0.6 2.2,0.6 2.5,-1.1 2.7,-2.5 2.2,-3.6 1.6,-4.1 0.8,-4 -0.2,-3.2 -1.1,-2 -1.7,-0.5 -0.6,0.3 m -5.8,20.6 0.4,0.6 2.2,0.6 2.5,-1.1 2.6,-2.5 2.3,-3.6 1.6,-4.1 0.8,-4 -0.2,-3.2 -1.1,-2 -1.8,-0.5 -0.5,0.3 m -5.8,20.6 0.4,0.6 2.1,0.6 2.5,-1.1 2.7,-2.5 2.2,-3.6 1.6,-4.1 0.8,-4 -0.2,-3.2 -1,-2 -1.8,-0.5 -0.6,0.3 m -5.8,20.6 0.4,0.6 2.2,0.6 2.5,-1.1 2.6,-2.5 2.3,-3.6 1.6,-4.1 0.8,-4.1 -0.2,-3.1 -1.1,-2.1 -1.8,-0.4 -0.5,0.3 m -5.8,20.6 0.4,0.6 2.2,0.6 2.4,-1.1 2.7,-2.6 2.2,-3.5 1.7,-4.1 0.7,-4.1 -0.1,-3.1 -1.1,-2.1 -1.8,-0.4 -0.6,0.3 m -5.7,20.6 0.3,0.6 2.2,0.6 2.5,-1.1 2.7,-2.6 2.2,-3.5 1.6,-4.1 0.8,-4.1 -0.2,-3.1 -1.1,-2.1 -1.8,-0.4 -0.5,0.3 m -5.8,20.6 0.4,0.6 2.2,0.5 2.5,-1 2.6,-2.6 2.3,-3.5 1.6,-4.1 0.8,-4.1 -0.2,-3.2 -1.1,-2 -1.8,-0.4 -0.6,0.3 m -5.7,20.6 0.4,0.6 2.1,0.5 2.5,-1 2.7,-2.6 2.2,-3.5 1.6,-4.1 0.8,-4.1 -0.2,-3.2 -1,-2 -1.8,-0.4 -0.6,0.3 m -5.8,20.6 0.4,0.6 2.2,0.5 2.5,-1 2.6,-2.6 2.3,-3.6 1.6,-4 0.8,-4.1 -0.2,-3.2 -1.1,-2 -1.8,-0.4 -0.5,0.3 m -5.8,20.6 0.4,0.6 2.1,0.5 2.5,-1 2.7,-2.6 2.2,-3.6 1.6,-4 0.8,-4.1 -0.2,-3.2 -1,-2 -1.8,-0.4 -0.6,0.3 m -5.8,20.6 0.4,0.5 2.2,0.6 2.5,-1 2.6,-2.6 2.3,-3.6 1.6,-4.1 0.8,-4 -0.2,-3.2 -1.1,-2 -1.8,-0.4 -0.5,0.3 m -5.8,20.6 0.4,0.5 2.2,0.6 2.4,-1 2.7,-2.6 2.2,-3.6 1.7,-4.1 0.7,-4 -0.1,-3.2 -1.1,-2 -1.8,-0.4 -0.6,0.3 m -5.7,20.6 0.3,0.5 2.2,0.6 2.5,-1 2.7,-2.6 2.2,-3.6 1.6,-4.1 0.8,-4 -0.2,-3.2 -1.1,-2 -1.8,-0.5 -0.5,0.3 m -5.8,20.6 0.4,0.6 2.2,0.6 2.5,-1 2.6,-2.6 2.3,-3.6 1.6,-4.1 0.8,-4 -0.2,-3.2 -1.1,-2 -1.8,-0.5 -0.6,0.3 m -5.7,20.6 0.4,0.6 2.1,0.6 2.5,-1.1 2.7,-2.5 2.2,-3.6 1.6,-4.1 0.8,-4 -0.2,-3.2 -1,-2 -1.8,-0.5 -0.6,0.3 m -5.8,20.6 0.4,0.6 2.2,0.6 2.5,-1.1 2.6,-2.5 2.3,-3.6 1.6,-4.1 0.8,-4 -0.2,-3.2 -1.1,-2 -1.8,-0.5 -0.5,0.3 m -5.8,20.6 0.4,0.6 2.1,0.6 2.5,-1.1 2.7,-2.5 2.2,-3.6 1.7,-4.1 0.7,-4.1 -0.2,-3.1 -1,-2.1 -1.8,-0.4 -0.6,0.3 m -5.8,20.6 0.4,0.6 2.2,0.6 2.5,-1.1 2.6,-2.5 2.3,-3.6 1.6,-4.1 0.8,-4.1 -0.2,-3.1 -1.1,-2.1 -1.8,-0.4 -0.5,0.3 m -5.8,20.6 0.4,0.6 2.2,0.6 2.5,-1.1 2.6,-2.6 2.2,-3.5 1.7,-4.1 0.8,-4.1 -0.2,-3.1 -1.1,-2.1 -1.8,-0.4 -0.6,0.3 m -5.7,20.6 0.3,0.6 2.2,0.5 2.5,-1 2.7,-2.6 2.2,-3.5 1.6,-4.1 0.8,-4.1 -0.2,-3.2 -1.1,-2 -1.7,-0.4 -0.6,0.3 m -3.6,3.3 -0.2,0.3 -1.9,3.7 -0.4,1.1 m 0.3,12.2 0.4,0.6 2.2,0.5 2.5,-1 2.6,-2.6 2.3,-3.5 1.6,-4.1 0.8,-4.1 -0.2,-3.2 -1.1,-2 -1.8,-0.4 -0.5,0.3 m -5.8,20.6 0.4,0.6 2.1,0.5 2.5,-1 2.7,-2.6 2.2,-3.6 1.6,-4 0.8,-4.1 -0.2,-3.2 -1,-2 -1.8,-0.4 -0.6,0.3 m -5.8,20.6 0.4,0.6 2.2,0.5 2.5,-1 2.6,-2.6 2.3,-3.6 1.6,-4 0.8,-4.1 -0.2,-3.2 -1.1,-2 -1.8,-0.4 -0.5,0.3 m -5.8,20.6 0.4,0.5 2.2,0.6 2.4,-1 2.7,-2.6 2.2,-3.6 m 0,0 -0.6,-0.4 m -2,-0.7 1.2,0.4 0.3,0.1 0.5,0.2 m -1.8,-1 -0.2,0.3 m 3.3,-5.4 -1.5,2.1 -1.5,2.5 -0.4,0.7 m 2.7,1.2 0.7,-1.8 0.2,-2.7 -0.2,-2 m -3.5,5.5 -0.1,0.1 m 0.2,-0.3 -0.1,0.2 m 12,-9.4 0,-0.1 0.7,0.5 0.9,0.8 1.1,1.2 1.5,1.3 1.8,1.2 1.6,0.7 1.3,0.1 1.1,-0.3 0.7,-0.5 0,-0.1 m -9.2,19.8 0.2,0.1 0.1,-0.1 -0.4,-0.5 -1.1,-0.7 -1.5,-0.7 -1.6,-0.4 -1.8,-0.4 -1.8,-0.3 -1.4,-0.4 m 20.8,-16.5 0,0 1.3,1 0.8,1.9 0.2,2.5 -0.2,3.1 -0.9,3.2 -1.2,3.1 -1.7,2.7 -1.8,2.2 -1.8,1.3 -1.8,0.5 -0.7,-0.2 m -14.2,-21.4 -0.3,0.5 -0.5,0.6 -0.4,0.6 -0.3,0.6 -0.4,0.7 -0.4,0.7 -0.3,0.7 m 21.1,15.6 1.7,-1.4 1.7,-2.3 1.4,-2.9 1,-3.1 0.4,-3 -0.1,-2.6 -0.2,-0.7 m -348,-102.4 -2,-0.5 -2.1,-0.1 -2.1,0.3 -2.1,0.6 -2,1.1 -1.8,1.3 -1.5,1.5 -1.2,1.8 m 0,0 2.9,4.1 3.8,4.3 4.5,4.5 5.2,4.6 5.8,4.7 6.4,4.7 6.8,4.6 7.2,4.5 7.4,4.3 7.5,4 7.6,3.6 7.5,3.3 7.2,2.9 m 2,-14.6 0.6,1.2 0.3,1.5 0.1,1.7 -0.2,2 -0.4,2.1 -0.6,2.1 -0.8,2.1 -1,1.9 m 2,-14.6 -6.6,-2.6 -6.8,-3.1 -6.9,-3.4 -6.9,-3.7 -6.6,-4 -6.4,-4.1 -6,-4.3 -5.5,-4.3 -4.9,-4.2 -4.3,-4.1 -3.4,-4 -2.7,-3.7 M 453.1,133.1 334.8,89.4 m 143,37 1.6,3.1 0.6,2.6 -0.4,2.2 -1.3,1.6 -2.3,1 -3.1,0.5 -4,-0.2 -4.7,-0.8 -5.3,-1.4 -5.8,-1.9 m 13.4,-22.1 5.9,7.8 5.4,7.6 m -7.4,-9.6 -0.5,-0.7 -0.5,-0.7 -0.4,-0.8 -0.5,-0.7 -0.5,-0.7 -0.5,-0.8 -0.5,-0.7 -0.5,-0.7 m -1.7,7.5 1.6,0.5 1.5,0.3 1.2,0.1 0.9,-0.1 0.6,-0.3 0.3,-0.6 -0.1,-0.7 -0.4,-0.9 m -11.9,6 1.5,-0.1 1.3,-0.2 1.1,-0.3 0.9,-0.5 0.7,-0.6 0.5,-0.8 0.2,-0.8 0.1,-1 m -6.9,15 3.2,0.7 2.6,0.2 1.9,-0.4 1,-0.9 0,-1.4 -0.8,-1.9 -1.7,-2.2 -2.5,-2.4 -3.1,-2.4 m -6.3,8.8 0.7,0.2 0.7,0.3 0.8,0.2 0.7,0.3 0.7,0.2 0.7,0.3 0.7,0.2 0.7,0.2 m -124,-45.6 118.3,43.7 m -132.5,-49.8 1.8,0.9 1.8,0.8 1.8,0.8 1.8,0.8 1.7,0.7 1.8,0.7 1.7,0.7 1.8,0.7 m -30.8,-22.2 -0.6,1.1 0.2,1.6 1.2,2 2.1,2.2 2.7,2.4 3.4,2.5 3.7,2.3 3.9,2 m -34.2,-28.9 1.7,1.6 2,1.7 2,1.6 2.2,1.6 2.3,1.6 2.4,1.6 2.5,1.6 2.5,1.5 m -34.2,-23.4 1,1.4 1.5,1.5 2,1.6 2.2,1.5 2.5,1.5 2.5,1.3 2.5,1.1 2.4,0.7 m -25.8,-38 -0.5,4.1 0.8,4.8 1.9,5.3 2.7,5.7 4.3,7.5 m -4.1,-26.8 -1.7,-0.7 -1.6,-0.4 -1.3,0 -0.5,0.5 m 0.8,-6.3 4.3,6.9 m 3,28.4 -4.8,-7.9 -3.7,-7.5 -1.9,-5 -1,-4.7 0,-4.1 1.3,-3.4 2.7,-2.6 0.1,-0.1 m 72.3,95.4 118.3,43.7 m 2,-14.6 0.6,1.2 0.3,1.5 0.1,1.7 -0.2,2 -0.4,2.1 -0.6,2.1 -0.8,2.1 -1,1.9 m -148,-82 0.4,0.3 0.3,0.3 0.3,0.3 0.2,0.4 0.1,0.4 0.1,0.4 0.1,0.4 -0.1,0.5 m 10.9,-0.3 -0.5,1 -0.4,1 -0.3,1 -0.3,1.1 -0.1,0.9 -0.1,0.9 0.1,0.7 0.2,0.6 m 1.4,-7.2 -1,-0.4 -0.9,-0.3 -0.9,-0.3 -0.9,-0.3 -0.9,-0.2 -0.8,-0.2 -0.7,-0.1 -0.8,-0.1 m -4,2.2 1.4,-0.9 2.2,-1.2 0.4,-0.1 m 25.4,21.4 -0.2,-0.2 -0.2,-0.1 m 105.9,34.3 0.4,0.2 0.4,0.1 0.4,0.1 0.4,0.2 0.4,0.1 0.3,0.1 0.4,0.2 0.4,0.1 M 314,75.6 l 0.3,0.1 0.3,0.1 0.3,0.1 0.3,0.1 0.3,0.1 0.3,0.1 0.2,0.1 0.3,0.2 m 50.5,21.8 0.7,0.5 m -4.3,-1.6 0.5,0.4 0.7,0.4 0.7,0.4 0.6,0.2 0.6,0.1 0.4,0 0.2,-0.2 -0.1,-0.2 m -7.4,-4.2 3.8,3.1 m -72.6,-45.8 0,0 1.8,-4.4 m -6.9,5.9 2.1,0.3 0.6,-0.1 1.7,-0.9 0.2,-0.2 0.5,-0.6 m 17,12.1 -0.5,0.2 -2.5,1.1 -1.5,0.9 m 10.5,-3.8 -6,1.6 M 292.4,47 l 1.7,1.8 2.1,2 2.5,2 2.6,1.9 2.9,2 3.1,1.8 3.1,1.8 3.2,1.6 M 258.7,6.3 260.1,8 260.5,8.6 M 251,7.7 252,7 l 3.4,-0.8 3.3,0.1 m 48.9,57.2 0.2,0.3 0.2,0.4 0.2,0.4 0.2,0.4 0.1,0.4 0,0.4 0.1,0.3 -0.1,0.4 m 5.7,-6.6 0,0.1 0,0.2 -0.1,0.2 0,0.3 -0.1,0.3 -0.1,0.3 -0.1,0.3 -0.2,0.3 m 0.6,-2 -2.9,-1.5 -2.9,-1.6 -2.7,-1.7 -2.6,-1.7 -2.5,-1.8 -2.2,-1.8 -1.9,-1.8 -1.6,-1.7 m -2.5,0.7 0.3,-0.2 0.3,-0.2 0.3,-0.1 0.4,-0.2 0.3,0 0.3,0 0.3,0 0.3,0 m 154.3,63.3 -0.6,-0.2 -0.5,-0.2 -0.5,-0.2 -0.5,-0.2 -0.5,-0.1 -0.5,-0.2 -0.5,-0.2 -0.5,-0.1 m 11.8,-2.1 0.3,1.2 -0.1,1 -0.4,0.8 -0.9,0.5 -1.2,0.4 -1.5,0.1 -1.8,-0.1 -2.1,-0.4 m 6,-5.5 0.1,0.2 0.2,0.2 0.2,0.3 0.2,0.2 0.2,0.3 0.3,0.3 0.3,0.2 0.2,0.3 m -20,-30.4 18.3,28.4 m -23,-30.2 4.7,1.8 m 13.5,26.6 -18.2,-28.4 m 9,30.9 2.7,0.9 2.4,0.5 2,0.2 1.5,-0.2 1,-0.5 0.5,-0.8 -0.2,-1.2 -0.7,-1.4 m -132.2,-42.9 123,45.4 M 299,46.4 l 1.2,1.6 1.8,1.7 2.1,1.9 2.6,1.8 2.7,1.7 2.9,1.7 3,1.4 2.9,1.2 M 280.8,18 299,46.4 M 276,16.2 280.8,18 M 294.3,44.6 276,16.2 m 18.9,30.1 0,-0.1 0,-0.2 -0.1,-0.2 -0.1,-0.3 0,-0.2 -0.2,-0.2 -0.1,-0.2 -0.1,-0.3 m 23.8,16.7 -0.5,-0.2 -0.5,-0.2 -0.5,-0.2 -0.5,-0.2 -0.5,-0.2 -0.5,-0.1 -0.5,-0.2 -0.4,-0.1 m 5.6,2 -0.2,0 -0.2,-0.1 -0.2,-0.1 -0.2,-0.1 -0.2,-0.1 -0.3,-0.1 -0.2,0 -0.2,-0.1 M 442.9,107.4 319.8,61.9 m 125.3,46.3 -0.2,-0.1 -0.3,-0.1 -0.3,-0.1 -0.3,-0.1 -0.3,-0.1 -0.3,-0.1 -0.3,-0.1 -0.2,-0.1 m -134.4,-40.9 5.6,-2.8 m -0.5,-1.8 0.1,0.2 0.1,0.3 0,0.2 0.1,0.2 0,0.2 0.1,0.3 0,0.2 0.1,0.2 m 1.3,4.7 2,-3.6 m -3.3,-1.1 0.4,0.1 0.4,0.1 0.4,0.2 0.4,0.1 0.4,0.1 0.4,0.2 0.5,0.2 0.4,0.1 m -0.1,4.3 -0.2,0 -0.2,-0.1 -0.3,-0.1 -0.2,-0.1 -0.3,-0.1 -0.2,-0.1 -0.2,-0.1 -0.3,-0.1 m 1.9,0.7 -0.5,1 -0.4,1.1 -0.3,1 -0.2,1 0,1 0,0.9 0.2,0.8 0.2,0.6 m -25.7,-25.1 -0.4,-0.1 -0.3,-0.1 -0.4,0 -0.3,0.1 -0.3,0.1 -0.2,0.2 -0.2,0.2 -0.1,0.2 m -28.7,-37.1 0.3,0.2 0.4,0.3 0.2,0.4 0.3,0.3 0.1,0.4 0.1,0.4 0.1,0.4 -0.1,0.5 m 53,45.9 0.2,-0.5 0.2,-0.6 0.1,-0.5 0,-0.5 0,-0.5 -0.1,-0.5 -0.1,-0.4 -0.2,-0.3 m 3.9,1.4 0.1,0.3 0,0.3 0,0.4 0,0.5 -0.2,0.5 -0.1,0.6 -0.3,0.5 -0.2,0.4 m 122,57.1 -0.3,-0.6 -0.2,-0.7 0,-0.9 0.1,-1 0.2,-1 0.3,-1.1 0.4,-1 0.5,-1 m 0,0 -123.1,-45.5 m 0.1,-4.3 0.2,0.1 0.3,0.1 0.2,0.1 0.3,0.1 0.2,0.1 0.2,0.1 0.3,0.1 0.2,0.1 m 0.5,-3.7 0.1,0.3 0.1,0.4 0,0.4 0,0.5 -0.1,0.6 -0.1,0.5 -0.2,0.5 -0.3,0.5 m -2,3.5 2,-3.5 m 0,0 123.1,45.4 m 0.5,-3.6 0.1,0.3 0.1,0.4 0,0.4 0,0.5 -0.1,0.5 -0.2,0.5 -0.2,0.6 -0.2,0.4 M 291.1,47.5 288.4,52 m 4,-5 -0.2,0 -0.2,0 -0.2,0.1 -0.2,0 -0.1,0.1 -0.2,0.1 -0.1,0.1 -0.1,0.1 m 149.3,67.1 2,-3.6 m -178.7,-85.6 0,0 0,-0.1 -0.1,0 -0.1,-0.1 -0.1,-0.1 -0.1,-0.2 -0.2,-0.2 -0.2,-0.2 -0.3,-0.5 -0.4,-0.7 -0.1,-0.1 -0.6,-1.6 -0.5,-2.5 0.1,-1.3 m 27.5,31.9 2,-3.6 m 0,0 0.1,0.2 0.1,0.2 0.1,0.2 0.1,0.1 0,0.2 0.1,0.2 0,0.1 0,0.2 m 3.8,-1.2 -0.5,-0.2 -0.5,0 -0.6,0 -0.5,0.1 -0.5,0.2 -0.5,0.3 -0.4,0.3 -0.3,0.5 m -0.5,-1.4 0.3,-0.4 0.4,-0.4 0.4,-0.3 0.5,-0.3 0.5,-0.2 0.6,0 0.5,0 0.5,0.1 m -5.7,5.1 -19.8,-30.8 m -0.8,2 0,0 0.8,-1.9 0,-0.1 m -5.1,6.5 0,0 0.1,0 0,-0.1 0.1,0 0,-0.1 0.1,-0.1 0.2,-0.1 0.2,-0.2 0.4,-0.3 1,-1 1.4,-1.6 0.8,-1 m 0.5,-6.9 -4.4,-6.9 m 4.7,11.8 0.2,-2.8 -0.2,-1.5 -0.3,-0.6 m 3.9,3.7 18.2,28.4 m -18.7,-30.6 0,0.3 0,0.4 0,0.3 0.1,0.3 0.1,0.2 0,0.3 0.1,0.2 0.2,0.2 m -8.9,-11.5 1.7,-0.6 1.7,-0.1 1.5,0.5 1.2,1 1,1.5 0.7,1.9 0.5,2.4 0.1,2.7 m -7.8,-8.4 -0.6,-0.9 m 8.9,11.5 0.3,-0.4 0.3,-0.4 0.5,-0.3 0.5,-0.3 0.5,-0.2 0.5,0 0.6,0 0.4,0.1 m 100.3,83.7 0,-0.1 -0.1,-0.5 0.3,-0.3 0.4,-0.1 0.8,0.2 0.8,0.2 m 2.7,4.7 -1.9,-1.3 -2.4,-2.1 -0.6,-0.7 m 0.7,0.4 0.5,0.5 1.1,1 1.4,1.1 1.6,1.1 m -2.8,-4.3 -0.8,-0.2 -0.7,-0.1 -0.2,0 -0.2,0.3 0,0.4 0.1,0.2 m 5.6,1.9 -0.1,-0.1 -0.9,-0.8 -0.9,-0.6 -1,-0.6 -0.9,-0.4 m 4.4,2.7 -0.6,-0.2 m -4.1,-2.9 0.9,0.4 1.2,0.6 0.8,0.6 1.1,0.8 0.7,0.7 m -9.8,-1.3 0,0 0.2,0.1 0.4,0 0.3,-0.2 0.3,-0.2 0.2,-0.3 m 6.9,3.5 0,0 -0.1,0 m -21.1,-10.8 3.8,3.1 m -3.8,-3.1 -0.1,0.2 -0.1,0.2 -0.2,0.1 -0.1,0.2 -0.2,0.1 -0.2,0.1 -0.1,0 -0.1,0 m 3.8,3.1 0.1,0 0.1,0 0.2,-0.1 0.2,-0.1 0.1,-0.2 0.2,-0.1 0.1,-0.2 0.1,-0.2 m 12,3.6 0,0 -0.2,0 -0.4,0 -0.3,0.1 -0.3,0.2 -0.3,0.3 m -8,-2.2 0,0 -0.5,-0.6 m -2,-1.4 0.2,-0.2 0.1,-0.1 0.1,-0.2 0.2,-0.1 0.2,-0.2 0.1,0 0.2,-0.1 0.1,0 m 0,0 -3.8,-3.1 m 0,0 -0.1,0 -0.2,0.1 -0.1,0 -0.2,0.1 -0.2,0.2 -0.1,0.1 -0.1,0.2 -0.2,0.2 m 5.3,2.2 0.1,0.1 0,0.1 -0.1,0 -0.1,-0.1 -0.1,0 -0.1,-0.1 m -3.5,-3.1 3.8,3.1 m -4.1,-3.1 0,-0.1 -0.1,0 0.1,0 0.1,0 0.1,0 0.1,0.1 m 15.5,8.3 0,0 -0.3,-0.2 -0.1,-0.1 -0.1,0 m -8.3,-2.4 -0.1,0.2 -0.1,0.2 -0.2,0.1 -0.2,0.2 -0.1,0.1 -0.2,0.1 -0.1,0 -0.2,0 m 2.4,-1.8 -0.1,0 -0.2,0.1 -0.2,0.1 -0.1,0.1 -0.2,0.1 -0.1,0.2 -0.2,0.1 -0.1,0.2 m 1.2,-0.9 -3.8,-3.1 m 4.1,3.1 0.1,0.1 0,0.1 -0.1,0 -0.1,-0.1 -0.1,0 -0.1,-0.1 m -3.5,-3.1 3.8,3.1 m -4.1,-3.1 -0.1,0 0,-0.1 0.1,0 0.1,0 0.1,0.1 0.1,0 m 18.5,12.2 0,0 -0.5,-0.4 -0.3,-0.5 -0.1,-0.4 0,-0.3 0.1,-0.2 m -5.4,-3.1 0.1,-0.3 0.1,-0.4 0,-0.3 0,-0.3 0,-0.1 -0.1,-0.1 m 2.4,4.1 0.2,-0.2 0.1,-0.3 m -2.8,-2.1 0.5,0.2 0.6,0.4 0.7,0.4 0.6,0.7 0.4,0.4 m -3,-1.6 0,-0.1 0.2,-0.4 m 4.5,1.2 0,0 0.5,0.4 0.3,0.5 0.2,0.4 0,0.3 -0.1,0.3 m -2.6,-1 0.2,-0.2 0.2,-0.3 0.2,-0.3 0.3,-0.2 0.1,-0.1 0.1,0 m -1.1,1.1 2.6,1 m 58.4,18.7 -0.4,-0.7 -0.2,-0.7 -0.2,-1 0,-1 0.1,-1 0.3,-1.1 0.4,-1.1 0.4,-0.9 m 8,3.4 0.3,0.4 2.5,2.9 2.7,2.3 m -5.5,-5.6 -1.1,-0.6 -1,-0.5 -1,-0.4 -1,-0.5 -1,-0.4 -1,-0.4 -0.9,-0.3 -1,-0.3 m 15.6,7.3 -0.3,0 -0.2,0.1 -0.3,0.2 -0.2,0.2 -0.3,0.3 -0.3,0.2 -0.3,0.4 -0.2,0.3 M 280.5,16.9 275.8,15.1 m 7.1,3.6 -0.4,-0.4 -1,-0.9 -1,-0.5 m -2.2,-10.3 0.3,0.1 m -17.5,11.1 0.4,-0.5 0.8,0 1,0.2 1.1,0.5 1.1,0.6 1.1,0.7 0.9,0.8 0.5,0.8 m 12.5,-4 0,0.1 0,0.2 0.1,0.2 0,0.1 0,0.1 0.1,0.2 0,0.1 0.1,0.1 m -5,-2.9 0,0.2 0,0.2 0,0.1 0.1,0.2 0,0.1 0,0.1 0.1,0.1 0,0.1 m -4.1,-0.7 0.3,-0.2 0.5,-0.2 0.4,-0.1 0.6,-0.1 0.5,-0.1 0.6,0.1 0.5,0.1 0.5,0.1 m -8.6,4.2 0.3,0.5 0.3,0.4 0.1,0.2 0,0.2 0.1,0.1 0,0.1 0,0.1 m -3.2,-5.4 0.3,0.3 0.5,1 1.6,2.5 m 175.7,96.2 -0.3,-0.1 -0.3,-0.1 -0.3,-0.1 -0.3,-0.1 -0.4,-0.2 -0.3,-0.1 -0.3,-0.1 -0.3,-0.1 M 268.5,14 l -0.3,0.4 -0.4,0.4 -0.4,0.3 -0.5,0.3 -0.5,0.1 -0.6,0.1 -0.5,0 -0.5,-0.1 m 4,3.4 -0.1,0.1 -0.2,0 -0.2,0.1 -0.2,0 -0.2,0.1 -0.2,0 -0.3,0 -0.2,0.1 m 175.2,91.7 0.3,0.2 0.3,0.1 0.3,0.1 0.4,0.1 0.3,0.1 0.3,0.1 0.3,0.1 0.3,0.1 m 0.2,-3.7 0.2,0.3 0.2,0.4 0,0.4 0,0.5 0,0.6 -0.2,0.5 -0.1,0.5 -0.3,0.5 m 14.9,1.8 1,1.7 1.4,1.7 0.4,0.3 2.2,1.1 m -5.8,-7.8 0.5,2.3 0.3,0.7 m -1.1,-4 0,-0.2 m -5.4,7.6 -3.5,-5 m 8.7,10.7 -2.6,-2.3 -2.3,-2.9 -0.3,-0.5 m -10.4,-1.6 2,-3.6 m 3.5,1.3 2.5,5.7 m -6,-7 0.4,0.2 0.5,0.1 0.4,0.1 0.4,0.2 0.4,0.2 0.5,0.1 0.4,0.2 0.5,0.2 m 0.8,-3.6 0,0.3 0.1,0.4 -0.1,0.4 -0.1,0.5 -0.1,0.5 -0.2,0.5 -0.2,0.5 -0.2,0.5 m 4.9,3.9 -0.2,0.2 -0.3,0.2 -0.2,0.2 -0.3,0.3 -0.4,0.2 -0.3,0.2 -0.4,0.3 -0.3,0.2 m -1.1,-6.8 -0.1,0.2 -0.2,0.1 -0.1,0.2 -0.2,0.1 -0.2,0.1 -0.2,0.2 -0.2,0.1 -0.2,0.1 m 1.4,-1.1 0.1,-0.3 0,-0.4 -0.1,-0.4 -0.1,-0.3 -0.1,-0.3 -0.1,-0.3 -0.2,-0.2 -0.1,-0.3 M 264.1,7.1 263.8,7.6 263.5,8 263,8.3 l -0.5,0.3 -0.5,0.1 -0.5,0.1 -0.6,0 -0.4,-0.2 m 186.2,95.2 0.3,-0.4 0.4,-0.4 0.5,-0.4 0.5,-0.2 0.5,-0.2 0.5,0 0.5,0 0.5,0.1 M 263.5,6.2 l -1.3,0 -1.3,0.1 -1.2,0 -0.8,0 -0.2,0 m -0.1,-0.1 0,0 0.1,0.1 m 191.9,84.3 0,-0.1 m 0,0.1 1.7,1.9 9.1,11.1 4.9,7.2 0.2,0.2 m -1.7,7.5 -0.2,-0.2 -0.2,-0.1 m -34.1,-40 16.4,25.6 m -16.4,-25.6 0.1,-1.1 0.2,-1.6 0.5,-1.1 0.4,-0.4 0.3,-0.1 0.1,0 0.3,0 m -3.6,8.5 0.9,-2.4 0.4,-0.9 0.2,-0.4 0.2,-0.4 0,-0.1 m -8.9,19.1 1.4,-2 1.4,-2.3 1.3,-2.5 1.1,-2.7 1.1,-2.7 0.9,-2.7 m 41.8,34.4 -0.4,-0.1 -0.4,0 -0.4,0 -0.4,0.1 -0.4,0.1 -0.4,0.2 -0.4,0.2 -0.3,0.3 m -42,-56.7 -0.3,-0.2 m 7,12.1 -0.6,-0.1 -0.9,-0.1 -0.9,0.3 m 7.1,1.7 -4.7,-1.8 m 25.5,24.5 -1.5,-3.6 -3.2,-3.8 -1.9,-1.3 m -23.7,-6.5 0.2,0 0.2,0.1 0.2,0 0.2,0.1 0.2,0 0.1,0.1 0.2,0 0.1,0 m -3.8,-2.5 -0.5,1.5 m 1.4,-8.2 -0.1,3.2 -0.2,1.7 -0.6,1.8 m 7.4,-6 0,-0.1 -0.1,-0.1 0,-0.1 -0.1,-0.2 0,-0.1 0,-0.2 0,-0.1 0,-0.2 m -4.5,8.2 0.3,-2.4 0.5,-2.2 1.3,-3.5 m 0.7,5.3 0,0 -0.6,0.8 -0.8,0.7 -0.8,0.7 -0.6,0.6 m -3.2,0.4 0.2,0.1 0.3,0 0.4,0.1 0.3,0 0.4,0.1 0.4,0.1 0.4,0.1 0.5,0.2 m 0,0 0.3,-1.1 m -2.7,-1.1 0.3,0.1 0.2,0.1 0.3,0.1 0.4,0.1 0.3,0.2 0.4,0.1 0.4,0.2 0.4,0.2 m -1.8,-7.8 0.3,-0.2 0.4,-0.2 0.5,-0.1 0.5,-0.1 0.6,0 0.6,0.1 0.5,0.1 0.5,0.1 m 7.3,2.8 0,-0.1 -0.1,-0.2 0,-0.1 0,-0.1 -0.1,-0.2 0,-0.1 0,-0.2 0,-0.1 m 14.2,14 0,0 0,0.1 -0.3,0.7 -0.1,0.6 0.1,0.5 m -327.3,212 -0.7,2.1 -0.8,2.1 -1.1,1.9 -1.1,1.6 -1.2,1.4 -1.2,1 -1.2,0.7 -1.2,0.2 m -3.5,-21.4 1.5,1.2 1.6,1 1.5,1.1 1.6,0.9 1.7,0.9 1.6,0.8 1.7,0.7 1.7,0.7 m -13.5,-37.6 -2.8,3 -2.1,3.7 -1.2,4.2 -0.4,4.4 0.5,4.3 1.5,4.2 2.2,3.6 2.9,2.9 m 18.8,-132.2 -1.7,-0.8 -1.9,-0.1 -2.1,0.8 -1.7,1.5 m 11.3,-15.7 -3.9,14.3 m 6.1,-20.8 -1.7,5.2 -0.5,1.3 m -8.3,-11.3 2.1,0.4 2.6,1.1 3,1.7 2.8,1.6 m -30.1,54 5.5,-11.5 5.6,-9.5 6.4,-9 m -0.9,-1.8 0.3,0.3 0.2,0.3 0.2,0.3 0.2,0.2 0,0.2 0.1,0.2 -0.1,0.2 0,0.1 m -5.8,96 -0.7,0 -3.5,0.9 -2.9,1.8 m 10.8,-90 0,-0.1 0,-0.1 0,-0.1 0,-0.1 0,-0.2 0,-0.3 0,-0.3 0.1,-0.5 0,-0.7 0.2,-1 0,-0.1 0.4,-2 0.8,-2.3 0.6,-0.9 m 11.8,8.7 4.7,1.8 m -28.8,118.5 0.2,-0.3 0.2,-0.4 0.1,-0.3 0.1,-0.3 0,-0.3 0,-0.2 -0.1,-0.2 -0.1,-0.1 m 0,0 -2.5,-2.5 -1.9,-3.1 -1.2,-3.6 -0.5,-3.7 0.3,-3.8 1.1,-3.6 1.8,-3.2 2.4,-2.6 m -0.5,-2.1 0.3,0.3 0.1,0.4 0.2,0.3 0,0.3 0.1,0.3 0,0.2 -0.1,0.2 -0.1,0.1 m 22.6,-103.2 4,-14.3 m -6.8,19.7 1.6,-2.4 0.9,-1.9 0.3,-1.1 m -0.9,7.3 -0.2,0.4 -0.1,0.3 -0.2,0.4 -0.2,0.4 -0.1,0.3 -0.2,0.4 -0.1,0.4 -0.1,0.4 m 6.6,-26.6 0.4,2.4 0,2.8 -0.2,3 -0.6,3.1 -0.9,3.2 -1.1,3.2 -1.4,3.1 -1.6,2.8 m 4.9,-21.6 0.5,-2 m -25.8,141.2 -2.2,-2.4 -1.4,-3 -0.5,-3.4 0.5,-3.4 1.5,-3.1 2.2,-2.3 2.8,-1.4 3,-0.3 2.9,0.8 m 4.7,-5.3 -0.6,0.1 -0.6,0.3 -0.7,0.5 -0.6,0.7 -0.7,0.8 -0.6,0.9 -0.5,1 -0.4,1 m -10.1,-3.2 2.9,-1.9 3.4,-1.2 0.6,-0.1 m -6.4,29.3 -0.2,-0.3 -0.1,-0.4 0,-0.4 0,-0.6 0.2,-0.6 0.2,-0.7 0.3,-0.6 0.4,-0.8 m 19.2,-114.6 0.3,0 0.4,0.1 0.4,0 0.5,0.1 0.6,0.2 0.5,0.1 0.5,0.2 0.5,0.1 m -17.6,87.3 0.1,0.4 0,0.3 0.1,0.3 0,0.2 0.1,0.2 0,0.1 0,0.1 m 0,0 6.5,-0.1 m 12,-123.1 -2.4,-1.1 -2.5,-1.2 -2.2,-0.9 -1.7,-0.2 m 8.8,3.4 0.1,0.1 1.5,0.8 1.6,1.2 1.5,1.6 0.9,2.1 m -6.2,27 1.8,-3.2 1.6,-3.5 1.3,-3.6 1,-3.7 0.6,-3.6 0.4,-3.5 -0.1,-3.1 -0.4,-2.8 m -1.4,28.8 -4.8,-1.8 m 6.6,3.6 -0.2,-0.4 -0.8,-0.9 -0.8,-0.5 m -11.3,-5 0,0 1.4,-1 0.1,0 m -9.5,5.7 0,0 0,-0.1 0.1,0 0,-0.1 0.1,0 0.1,-0.1 0.1,-0.1 0.2,-0.1 0.2,-0.2 0.4,-0.3 0.5,-0.3 0.9,-0.6 1.9,-1.2 2.3,-1.2 1.2,-0.4 m -5.3,132.3 0.1,-0.4 0,-0.4 0.1,-0.4 0,-0.4 -0.1,-0.3 -0.1,-0.3 -0.1,-0.2 -0.1,-0.1 m 0,0 -1.7,-0.7 -1.5,-0.7 -1.6,-0.7 -1.6,-0.9 -1.5,-0.9 -1.5,-0.9 -1.4,-1 -1.5,-1.1 m 14.3,-28.2 2,-0.1 m -4.5,30.1 -1.4,-0.5 -1.5,-0.7 -1.4,-0.7 -1.4,-0.7 -1.3,-0.8 -1.4,-0.9 -1.3,-0.9 -1.3,-1 m 11.5,11.3 -0.3,-0.4 -0.3,-0.4 -0.1,-0.5 -0.1,-0.7 0,-0.7 0,-0.7 0.1,-0.8 0.2,-0.9 m 4.5,-30.1 0.2,0.2 0.3,0.1 0.2,0.1 0.2,0.1 0.3,0.1 0.2,0.1 0.2,0 0.3,0.1 m 12.3,-119.2 -0.5,-0.1 -0.5,-0.1 -0.6,0 -0.5,0.1 -0.6,0.2 -0.4,0.3 -0.5,0.3 -0.3,0.4 m -5.4,23.6 0.2,0.3 0.3,0.3 0.3,0.4 0.5,0.3 0.4,0.3 0.5,0.3 0.5,0.2 0.4,0.2 m -14.7,96.8 0.3,0.1 0.3,0.2 0.3,0.1 0.2,0.1 0.3,0.1 0.3,0.2 0.3,0.1 0.3,0.1 m 4.2,-5.5 -0.2,-0.1 -0.3,-0.1 -0.2,-0.1 -0.2,-0.1 -0.3,-0.1 -0.2,-0.1 -0.2,-0.1 -0.2,-0.1 m 1.8,0.8 2.1,-0.1 m 6.1,-92.2 -0.1,0.2 -0.1,0.2 0,0.2 -0.1,0.2 -0.1,0.2 -0.1,0.2 0,0.1 -0.1,0.2 m 5.4,0.3 -0.1,0.2 -0.1,0.1 -0.1,0.2 -0.1,0.2 -0.1,0.2 0,0.2 -0.1,0.2 -0.1,0.2 m -12.3,89 -0.6,0.1 -0.6,0.3 -0.6,0.6 -0.6,0.6 -0.5,0.9 -0.5,0.9 -0.5,1 -0.3,1.1 m 0,-105 1,-1 1.3,-0.4 1.2,0 1.1,0.5 0.8,0.9 0.6,1.2 0.2,1.3 -0.3,1.5 m 0.5,-2.4 0,0.7 -0.1,0.6 -0.1,0.4 -0.1,0.3 -0.1,0.2 0,0.1 -0.1,0 0,0.1 m 0.6,-7.2 -0.1,0.6 -0.1,1.3 0.1,2.9 m 3.8,-4 -0.3,0 -0.4,0 -0.4,-0.1 -0.5,-0.1 -0.6,-0.1 -0.5,-0.2 -0.5,-0.1 -0.5,-0.2 m 0.9,6.2 -0.1,-0.2 0,-0.2 -0.1,-0.1 -0.2,-0.2 -0.1,-0.2 -0.1,-0.2 -0.2,-0.2 -0.2,-0.1 m 7.8,-18.3 -0.3,0 -0.4,0 -0.5,-0.1 -0.5,-0.1 -0.5,-0.1 -0.6,-0.2 -0.5,-0.1 -0.5,-0.2 m 2.6,-8.1 0,0.1 0,0.2 -0.1,0.1 0,0.2 -0.1,0.2 0,0.3 -0.1,0.2 -0.1,0.3 m 2.1,5.3 -0.2,-2 -0.5,-1.5 -0.7,-1.1 -0.6,-0.6 -0.1,0 0,-0.1 m -8.4,-5 -0.3,-0.1 -0.3,-0.1 -0.2,0 -0.3,0 -0.3,0.1 -0.2,0.1 -0.3,0.1 -0.2,0.1 M -5.1,-39.8 l -0.2,-0.5 -0.2,-0.6 0,-0.6 m -0.1,-22.1 0,-0.6 0.2,-0.4 0.3,-0.5 0.2,-0.1 m -0.7,1.6 0.1,22.1 m 0,0 -31.2,26.9 m 0,0 0,0.6 0.2,0.6 0.3,0.7 0.4,0.5 0.4,0.6 0.5,0.4 0.6,0.4 0.3,0.2 m -2.9,-26.1 31.3,-26.9 m -31.3,26.9 0.2,22.1 m 0.5,-23.7 -0.2,0.1 -0.2,0.5 -0.2,0.4 -0.1,0.6 m -12,19.8 -0.9,0.9 -1,2.3 -0.2,2.7 0.6,3.1 1.5,3 2.1,2.7 1.5,1.4 m 76.2,-101 3.2,2 m -36,26.3 32.8,-28.3 m -35.8,35.6 3,-7.3 m -3,7.3 0.1,25.7 m -3.1,7.4 3.1,-7.4 m -3.1,7.4 -71.8,61.9 m -3.1,-2 3.1,2 m -3.1,-2 L -83,1.1 m -3.1,-2 3.1,2 m -35.9,26.3 32.8,-28.3 m -35.9,35.6 3.1,-7.3 m -2.9,44 -0.2,-36.7 M 25.4,29.8 8.5,44.4 M 34.7,7.7 25.4,29.8 M 34.1,-99.8 34.7,7.7 m -9.3,22.1 3.8,1.4 M 38.5,9.1 34.7,7.7 M 29.2,31.2 38.5,9.1 m -4.4,-108.9 3.8,1.4 m 0,0 0.6,107.5 M 29.2,31.2 12.3,45.8 m -37.2,69.7 -0.8,0.6 m 60.5,-216.5 -3.9,-1.4 m 7,3.4 -3.1,-2 M -79,28.2 -82.8,26.8 M -83,1.1 -79.2,2.5 M -79,28.2 -79.2,2.5 m -3.1,-2 -3.8,-1.4 m 6.9,3.4 -3.1,-2 m 121.7,199 -8.5,-3.1 m 53.7,3 2.3,-1.4 2.8,-0.5 3.2,0.4 3.2,1.4 3.2,2.1 2.7,2.9 2.1,3.2 1.3,3.5 0.5,3.3 -0.4,3.1 -1.3,2.4 -2.1,1.7 -2.7,0.9 -3.1,-0.2 -3.3,-1 -3.2,-1.9 -2.8,-2.7 -2.4,-3.1 m 0,0 -2.3,1.4 -2.8,0.5 -3.2,-0.4 -3.3,-1.3 -3.1,-2.2 -2.7,-2.8 -2.1,-3.3 -1.3,-3.4 -0.5,-3.4 0.4,-3 1.3,-2.5 2.1,-1.7 2.7,-0.8 3.1,0.1 3.3,1 3.2,2 2.8,2.6 2.4,3.1 m 94.6,27.2 0.1,29.7 M 179.2,226.6 30.7,171.8 M 179.3,256.3 30.9,201.4 m 0.4,7.6 -0.3,-0.1 m 0,6.9 0.4,-0.1 2,-1.2 1,-1.4 0,-1.6 -1.1,-1.4 -2,-1.1 m 129.4,48.7 -2,-0.4 -2.2,0 -2.1,0.5 -1.5,0.9 -0.9,1.1 0,1.3 0.9,1.1 1.6,0.9 2,0.5 2.2,0 2.1,-0.5 1.5,-0.9 0.9,-1.2 -0.1,-1.2 -0.8,-1.2 -1.6,-0.9 M 31.1,225.9 159.5,273.3 m 0,0 19.8,-17 m -54.1,-11.7 -2,-0.4 -2.2,0 -2.1,0.5 -1.5,0.9 -0.9,1.1 0,1.3 0.9,1.1 1.6,0.9 2,0.5 2.2,0 2.1,-0.5 1.5,-0.9 0.9,-1.2 -0.1,-1.2 -0.8,-1.2 -1.6,-0.9 M 41,198.2 l -1.6,1.3 m 1.6,-1.3 -10.1,-3.7 m 10,-15.2 0.1,18.9 m -10.2,-22.7 10.1,3.8 m 43.2,34.6 0.5,-0.4 m -14.3,-1.7 14.3,-12.4 m -162.7,116.9 -10.1,-3.8 m -26.6,-113.2 0.3,37 m 0,15 0.1,6.2 m 20.1,43.2 0,-1.3 m -0.2,-34.6 -0.4,-82.3 m 24.2,-1.4 -19.2,-7 m 0,0 -0.1,-21 m 17.4,71.9 2.3,3.2 1.6,3.4 0.8,3.4 -0.1,3.2 -1,2.7 -1.9,2 -2.5,1.1 -3,0.2 -3.2,-0.8 -3.2,-1.6 -3,-2.4 -2.6,-3 -1.8,-3.4 -1.1,-3.4 -0.1,-3.3 0.7,-2.9 1.6,-2.2 2.3,-1.4 m 0,0 -2.3,-3.2 -1.7,-3.4 -0.7,-3.4 0.1,-3.2 1,-2.7 1.8,-1.9 2.5,-1.2 3,-0.2 3.3,0.8 3.2,1.6 3,2.4 2.5,3 1.9,3.4 1.1,3.4 0.1,3.3 -0.7,2.9 -1.6,2.2 -2.3,1.4 m 8.2,50 0,-2.7 m -0.2,-23.4 -0.4,-71.6 m -22.4,60.4 14.8,-12.7 m -17.8,-2.1 3.6,-3.1 m -4.4,5.2 0.3,0.5 1.9,3.4 1,3.4 0.2,3.3 -0.2,1.3 m -0.3,-64.2 -0.1,-16.8 m 19.3,23.9 -19.2,-7.1 m 19.1,2.3 0.1,4.8 m 0,0 -1.6,1.3 m -17.6,-8.4 -1.6,1.4 M 6.8,218.9 6.6,181.5 M 25.9,226 6.8,218.9 m 1.7,-81.2 -2.4,-3.2 -1.6,-3.4 -0.8,-3.4 0.2,-3.2 1,-2.7 1.8,-2 2.5,-1.1 3,-0.2 3.3,0.8 3.2,1.6 3,2.4 2.5,3 1.9,3.4 1,3.4 0.2,3.3 -0.7,2.9 -1.6,2.2 -2.3,1.4 m 0,0 2.3,3.1 1.6,3.5 0.8,3.4 -0.1,3.2 -1,2.6 -1.9,2 -2.5,1.2 -3,0.2 -3.2,-0.8 -3.3,-1.6 -3,-2.4 -2.5,-3 -1.8,-3.4 -1.1,-3.4 -0.2,-3.3 0.8,-2.9 1.6,-2.2 2.3,-1.4 M 0.2,41.3 30.1,52.4 M 0.3,100 0.7,158.3 m 3.4,71 27,10 m -1,-186.9 1,186.9 m -27.6,14.2 7.8,2.9 m 19.8,-17.1 -19.8,17.1 m -30.6,-106.6 -0.2,-32.3 m 27.8,100.1 -1.5,1.3 m 1.5,-1.3 -0.2,-37.4 m 0,0 -1.5,1.3 m 20.9,43.2 -1.6,1.3 m 1.6,-1.3 -19.2,-7.1 m 19,-30.3 0.2,37.4 M 8.1,180.2 27.3,187.3 M 7.9,155.6 22.7,142.9 m -17.9,-2.1 3.7,-3.1 m -4.5,5.2 0.4,0.5 1.9,3.3 1,3.5 0.2,3.3 -0.2,1.3 m -120.8,121 -0.2,0.2 m -5,-1.9 0,0 0,-0.3 m 6.4,2.7 0.2,-0.2 m 100.3,-81.4 -1.3,-0.5 -1.9,-0.3 -1.5,0.5 -1.1,1.2 -0.4,1.7 0.3,2 0.9,2 1.5,1.6 1.8,1.1 1.7,0.4 1.4,-0.4 0.3,-0.3 m -5.5,-8.4 -0.6,0.7 -0.4,1.4 0.3,1.5 0.7,1.6 1.1,1.2 0.2,0.2 m 4.3,-5.2 -0.7,-0.9 -0.5,-0.6 -0.6,-0.5 m 0,0 0.4,0.3 0.4,0.3 0.5,0.4 0.3,0.4 0.4,0.5 0.3,0.4 0.3,0.5 0.3,0.5 m -3.7,-3.3 0.4,0.2 0.3,0.1 0.4,0.3 0.3,0.2 0.4,0.3 0.3,0.3 0.3,0.3 0.2,0.3 m -2.2,4.4 -1.2,-0.6 -1,-1 -0.6,-1.3 -0.3,-1.2 0.3,-1.1 0.6,-0.7 1,-0.3 1.2,0.2 1.1,0.7 1,1 0.7,1.2 0.2,1.3 -0.2,1 -0.6,0.8 -1,0.3 -1.2,-0.3 m 3.3,-3.1 0.5,1.4 0,1.6 -0.4,1.2 -0.9,0.8 -1.3,0.3 -1.4,-0.3 -1.4,-0.7 -1.3,-1.2 -0.9,-1.4 -0.5,-1.5 -0.1,-1.4 0.4,-1.2 0.8,-0.8 1.1,-0.3 1.3,0.1 0.4,0.1 m -90.7,111.6 -0.5,1.4 -1.4,2.9 -1.4,2 m -2.4,2 -1.4,0.5 -0.9,-0.1 m 5.9,-3.4 0.1,-0.2 1.5,-2.5 0.9,-2.5 m 90.9,-146.8 -1.3,-0.5 -1.9,-0.2 -1.5,0.4 -1.1,1.3 -0.4,1.7 0.3,1.9 0.9,2 1.5,1.6 1.7,1.1 1.8,0.4 1.4,-0.4 0.3,-0.3 m -5.5,-8.3 -0.6,0.7 -0.4,1.3 0.3,1.5 0.7,1.6 1.1,1.2 0.2,0.2 m 4.3,-5.1 -0.7,-1 -0.5,-0.5 -0.6,-0.6 m 0,0 0.4,0.3 0.4,0.4 0.5,0.4 0.3,0.4 0.4,0.4 0.3,0.4 0.3,0.5 0.3,0.5 m -3.7,-3.2 0.4,0.1 0.3,0.2 0.4,0.2 0.3,0.2 0.4,0.3 0.3,0.3 0.3,0.3 0.2,0.4 m -2.2,4.4 -1.2,-0.7 -1,-1 -0.6,-1.2 -0.3,-1.3 0.3,-1 0.6,-0.8 1,-0.2 1.2,0.2 1.1,0.6 1,1 0.7,1.3 0.2,1.2 -0.2,1.1 -0.6,0.7 -1,0.3 -1.2,-0.2 m 3.3,-3.2 0.5,1.5 0,1.5 -0.4,1.2 -0.9,0.8 -1.3,0.3 -1.4,-0.2 -1.4,-0.8 -1.3,-1.1 -0.9,-1.5 -0.5,-1.4 -0.1,-1.5 0.4,-1.1 0.8,-0.8 1.1,-0.4 1.3,0.1 0.4,0.2 m -130.9,105 0.2,-0.2 m 13,4.8 0.1,0.2 0.1,0.1 m 0,0.1 -0.2,-0.5 m -14.2,-5.1 -0.1,0.2 m 6.9,2.5 0.5,0.1 m 0,0 0.4,0.2 0.5,0.2 0.4,0.2 m -1.4,-0.5 0.1,-0.1 m -0.8,45.3 -1.4,-1 -2.2,-2.1 -1.6,-2.7 -0.8,-2.7 0.1,-2.5 1,-2 1.8,-1.2 2.2,-0.4 2.6,0.7 2.5,1.4 2.2,2.2 1.6,2.6 0.2,0.6 m -10.5,7.2 1.2,0.8 m 9.4,-8.1 -0.4,-0.8 m -4.3,-4.9 -0.9,-0.6 -2.7,-1.2 -2.6,-0.2 -2.3,0.6 -1.6,1.6 -0.8,2.2 0,2.8 1,2.8 1.7,2.8 2.3,2.2 m -2.2,3.6 -1,-0.7 -2.4,-2.3 -1.7,-2.7 -0.9,-2.9 -0.1,-2.7 0.8,-2.3 0.9,-1 m 7.2,1.7 0.2,-0.3 0.2,-0.3 0.3,-0.2 0.3,-0.2 0.4,-0.1 0.4,0 0.4,0 0.5,0.1 m 0,0 0.4,0.1 0.5,0.2 0.4,0.3 0.4,0.3 0.4,0.3 0.4,0.4 0.3,0.4 0.3,0.4 m 0,0 0.3,0.5 0.2,0.5 0.1,0.4 0.1,0.5 0,0.5 0,0.4 -0.1,0.4 -0.1,0.3 m 0,0 -0.2,0.4 -0.3,0.2 -0.2,0.3 -0.4,0.1 -0.4,0.1 -0.4,0.1 -0.4,0 -0.4,-0.1 m 0,0 -0.5,-0.1 -0.4,-0.2 -0.4,-0.3 -0.5,-0.3 -0.4,-0.3 -0.3,-0.4 -0.4,-0.4 -0.3,-0.5 m 0,0 -0.2,-0.4 -0.2,-0.5 -0.2,-0.5 -0.1,-0.4 0,-0.5 0,-0.4 0.1,-0.4 0.2,-0.4 m -4.1,12 0.4,0.3 m -3.8,-4.5 1.2,2 2.2,2.2 m 4.4,-8.8 -0.4,-0.9 0,-1.2 0.1,-1.1 m 3.6,6 -0.6,-0.2 -1.1,-0.7 m 4.4,-0.2 -1.5,0.8 -0.8,0.2 -0.4,0.1 m -3.6,-6 0.8,-0.2 1,-0.4 0.9,-0.4 m -3,2.5 3,-2.5 m 3.1,2.4 -0.1,1.8 0.3,1.1 0.3,0.6 m -3.4,-0.9 0.2,1.8 m -0.2,-1.8 2.9,-2.6 m -6.1,0.1 3.2,2.5 m -0.2,-5 0.3,0.5 1,1 1.2,0.7 0.6,0.2 m -1.9,-127.3 -0.7,-1.9 -0.3,-2.6 0.4,-3.1 0.9,-3.2 1.4,-3.1 1.7,-2.6 1.9,-1.9 1.8,-1 1.6,0 1.3,1 0.8,1.9 0.2,2.6 -0.4,3 -0.9,3.3 -1.4,3 -1.7,2.6 -1.8,1.9 -1.9,1 -1.6,0.1 -1.3,-1 m -0.2,-0.1 0.7,1.5 1.3,1 1.7,0.1 1.9,-0.9 2,-1.9 1.9,-2.6 1.5,-3.2 1.2,-3.4 0.6,-3.3 0,-3 -0.6,-2.4 -1.1,-1.5 -1.5,-0.6 -1.8,0.4 -0.6,0.4 m 13,3 0.7,0.4 1.1,1.5 0.6,2.4 0,3 -0.6,3.3 -1.2,3.4 -1.5,3.2 -1.9,2.6 -1.9,1.9 -2,0.9 -1.6,0 m -8.7,-18.2 0.4,-0.7 0.5,-0.6 0.4,-0.6 0.5,-0.5 0.4,-0.4 0.5,-0.3 0.5,-0.2 0.4,-0.1 m 0,0 0.4,0.1 0.4,0.1 0.3,0.2 0.3,0.3 0.2,0.4 0.2,0.5 0.1,0.6 0.1,0.7 m 0,0 0,0.7 -0.1,0.7 -0.1,0.8 -0.2,0.8 -0.2,0.8 -0.3,0.8 -0.3,0.8 -0.4,0.8 m 0,0 -0.4,0.7 -0.4,0.6 -0.5,0.6 -0.5,0.5 -0.4,0.4 -0.5,0.3 -0.5,0.2 -0.4,0.1 m 0,0 -0.4,0 -0.4,-0.1 -0.3,-0.3 -0.3,-0.3 -0.2,-0.4 -0.2,-0.5 -0.1,-0.6 -0.1,-0.6 m 0,0 0,-0.7 0.1,-0.8 0.1,-0.8 0.2,-0.8 0.2,-0.8 0.3,-0.8 0.3,-0.8 0.4,-0.8 m 13,16.8 0.6,-0.4 1.8,-1.9 1.7,-2.6 1.4,-3.1 0.9,-3.2 0.4,-3.1 -0.2,-2.6 -0.2,-0.5 m -17.3,8.8 -0.3,0.3 -1.4,0.6 m 3.2,-12.5 0.8,0.7 1,1 0.1,0.5 m -5.1,10.3 0.1,-0.3 -0.3,-0.8 -1,-1.1 -0.8,-0.6 m 4.1,1.5 -4.1,-1.5 m 1.6,-6.3 2.3,-1.2 1,-1.1 0.3,-1.1 m 1.8,5.4 -5.4,-2 m -1.6,6.3 1.4,-2.5 0.3,-2.1 -0.1,-1.7 m 96.3,-122.6 1.8,-1.1 1.7,-0.2 1.3,0.8 0.9,1.8 0.3,2.5 -0.3,3 -0.8,3.3 -1.3,3.1 -1.7,2.7 -1.8,2 -1.9,1.2 -1.7,0.1 -1.3,-0.8 -0.9,-1.8 -0.3,-2.5 0.3,-3 0.9,-3.2 1.3,-3.1 1.6,-2.8 1.9,-2 m -5.2,18.1 0.5,1.1 1.2,1.3 1.7,0.3 1.9,-0.8 2,-1.7 1.8,-2.5 1.7,-3.1 1.2,-3.4 0.7,-3.3 0.1,-3.1 -0.4,-2.5 -1,-1.7 -1.5,-0.8 -1.8,0.3 -0.9,0.5 m 13,3 1,0.6 1,1.7 0.4,2.5 -0.1,3.1 -0.7,3.4 -1.2,3.3 -1.6,3.1 -1.9,2.5 -2,1.7 -1.9,0.8 -1.3,-0.1 m -3.1,-18.4 0,0.7 -0.1,0.8 -0.1,0.8 -0.3,0.8 -0.2,0.8 -0.3,0.8 -0.4,0.7 -0.4,0.8 m 0,0 -0.4,0.7 -0.4,0.6 -0.5,0.5 -0.5,0.5 -0.4,0.3 -0.5,0.3 -0.4,0.1 -0.5,0.1 m 0,0 -0.4,-0.1 -0.3,-0.1 -0.3,-0.3 -0.3,-0.4 -0.2,-0.4 -0.2,-0.5 -0.1,-0.7 0,-0.6 m 0,0 0,-0.8 0.1,-0.7 0.2,-0.8 0.2,-0.8 0.2,-0.9 0.3,-0.8 0.4,-0.7 0.4,-0.8 m 0,0 0.4,-0.6 0.4,-0.7 0.5,-0.5 0.5,-0.4 0.5,-0.4 0.4,-0.3 0.5,-0.1 0.4,-0.1 m 0,0 0.4,0.1 0.3,0.1 0.4,0.3 0.2,0.4 0.2,0.4 0.2,0.6 0.1,0.6 0,0.7 m 7.4,17 0.9,-0.6 1.8,-2.1 1.7,-2.7 1.3,-3.1 0.8,-3.2 0.3,-3 -0.3,-2.5 -0.1,-0.2 m -17.2,8.8 -1.1,0.6 -0.9,0.3 m 3.6,-12.5 1.5,1.7 0.3,0.6 m -2.9,8.7 -4.3,-1.6 m 1.8,3.1 0,-1.1 -0.8,-1.1 -1,-0.9 m 1.8,-6.3 0.9,-0.3 1.6,-0.9 0.9,-1.2 0.2,-0.7 m 1.6,5.1 -5.2,-2 m -1.8,6.3 1.5,-2.5 0.4,-2.1 -0.1,-1.7 m 2.1,29.2 1.8,-0.8 1.5,0.2 1.2,1.2 0.7,2.1 0.1,2.7 -0.5,3.1 -1,3.2 -1.4,3 -1.8,2.5 -1.9,1.7 -1.8,0.9 -1.5,-0.2 -1.2,-1.2 -0.7,-2.1 -0.1,-2.7 0.5,-3.1 1,-3.2 1.5,-3 1.7,-2.5 1.9,-1.8 m -5.9,18.6 0.2,0.5 1.1,1.6 1.5,0.6 1.8,-0.4 2,-1.3 1.9,-2.3 1.8,-2.9 1.3,-3.3 0.9,-3.4 0.4,-3.2 -0.2,-2.7 -0.9,-2.1 -1.3,-1.1 -1.6,-0.1 -1.7,0.7 m 13.1,3 0.1,0 1.3,1.2 0.8,2 0.2,2.7 -0.3,3.3 -0.9,3.4 -1.4,3.3 -1.8,2.9 -1.9,2.2 -2,1.4 -1.8,0.3 -0.7,-0.1 m -3.1,-17.8 0,0.8 -0.2,0.8 -0.2,0.8 -0.2,0.8 -0.3,0.8 -0.4,0.8 -0.4,0.7 -0.4,0.7 m 0,0 -0.4,0.6 -0.5,0.6 -0.4,0.4 -0.5,0.4 -0.5,0.3 -0.4,0.2 -0.5,0 -0.4,0 m 0,0 -0.3,-0.2 -0.3,-0.2 -0.3,-0.4 -0.2,-0.4 -0.2,-0.5 -0.1,-0.6 0,-0.7 0,-0.7 m 0,0 0.1,-0.8 0.1,-0.8 0.2,-0.8 0.2,-0.8 0.3,-0.8 0.4,-0.8 0.4,-0.7 0.4,-0.7 m 0,0 0.4,-0.6 0.5,-0.6 0.5,-0.4 0.4,-0.4 0.5,-0.3 0.4,-0.2 0.5,0 0.4,0 m 0,0 0.3,0.1 0.4,0.3 0.2,0.3 0.2,0.5 0.2,0.5 0.1,0.6 0.1,0.7 -0.1,0.7 m 7.4,16.5 0.3,-0.2 1.8,-1.7 1.8,-2.5 1.4,-3 1,-3.2 0.5,-3.2 -0.1,-2.7 -0.2,-1 m -17.2,8.8 -1.5,0.6 -0.9,0.3 m 4.3,-12.4 1.3,1.9 0.1,0.4 m -5.7,10.1 0.1,-1.4 -0.7,-1.2 -0.8,-1.1 m 4.7,1.7 -4.7,-1.7 m 2.1,-6.2 0.9,-0.2 1.6,-0.8 0.9,-0.9 0.2,-0.6 m 1.4,4.3 -5,-1.8 m -2.1,6.2 1.6,-2.5 0.5,-2 0,-1.7 m -97.7,58.8 -0.7,-1.9 -0.3,-2.6 0.4,-3.1 0.9,-3.2 1.4,-3.1 1.7,-2.6 1.9,-1.9 1.8,-1 1.6,0 1.3,1 0.8,1.9 0.2,2.6 -0.4,3.1 -0.9,3.2 -1.4,3.1 -1.7,2.6 -1.8,1.9 -1.9,1 -1.6,0 -1.3,-1 m -0.2,-0.1 0.7,1.5 1.3,1.1 1.7,0 1.9,-0.9 2,-1.9 1.9,-2.6 1.5,-3.1 1.2,-3.4 0.6,-3.4 0,-3 -0.6,-2.4 -1.1,-1.5 -1.5,-0.6 -1.8,0.5 -0.6,0.3 m 13,3 0.7,0.4 1.1,1.6 0.6,2.4 0,2.9 -0.6,3.4 -1.2,3.4 -1.5,3.1 -1.9,2.7 -1.9,1.8 -2,1 -1.6,-0.1 m -8.7,-18.1 0.4,-0.7 0.5,-0.7 0.4,-0.5 0.5,-0.5 0.4,-0.4 0.5,-0.3 0.5,-0.2 0.4,-0.1 m 0,0 0.4,0 0.4,0.1 0.3,0.2 0.3,0.4 0.2,0.4 0.2,0.5 0.1,0.6 0.1,0.6 m 0,0 0,0.7 -0.1,0.8 -0.1,0.8 -0.2,0.8 -0.2,0.8 -0.3,0.8 -0.3,0.8 -0.4,0.7 m 0,0 -0.4,0.7 -0.4,0.7 -0.5,0.5 -0.5,0.5 -0.4,0.4 -0.5,0.3 -0.5,0.2 -0.4,0.1 m 0,0 -0.4,0 -0.4,-0.1 -0.3,-0.2 -0.3,-0.3 -0.2,-0.5 -0.2,-0.5 -0.1,-0.5 -0.1,-0.7 m 0,0 0,-0.7 0.1,-0.8 0.1,-0.7 0.2,-0.9 0.2,-0.8 0.3,-0.8 0.3,-0.8 0.4,-0.7 m 13,16.8 0.6,-0.4 1.8,-1.9 1.7,-2.7 1.4,-3 0.9,-3.3 0.4,-3 -0.2,-2.6 -0.2,-0.6 m -17.3,8.9 -0.3,0.2 -1.4,0.6 m 3.2,-12.4 0.8,0.6 0.9,1.1 0.2,0.5 m -3,8.9 -4.1,-1.5 m 2,2.8 0.1,-0.3 -0.3,-0.8 -1,-1.1 -0.8,-0.6 m 1.6,-6.2 2.3,-1.2 1,-1.2 0.3,-1 m 1.8,5.4 -5.4,-2 m -1.6,6.2 1.4,-2.4 0.3,-2.1 -0.1,-1.7 m -4.2,108.9 7.8,-1 m -59.4,45.3 51.6,-44.3 m -49.9,48.8 -1.7,-4.5 m 18.2,10.6 -16.5,-6.1 m 24.4,5.2 -7.9,0.9 m 18.8,-10.4 -10.9,9.5 m 18.8,-10.4 -7.9,0.9 m 37.4,10 -29.5,-10.9 m 31.1,15.4 -1.6,-4.5 m -39.7,40.1 41.3,-35.6 m -5.8,48.7 -35.5,-13.1 m 40.2,9.1 -4.7,4 m 17.3,0.7 -12.6,-4.7 m 43.4,5.6 -30.8,-0.9 m 36.8,-2.2 -6,3.1 m 9.1,-32.8 -3.1,29.7 m 8.1,-30.3 -5,0.6 M -14,330.8 -56.6,315 m 50.5,14.8 -7.9,1 M 11,315 -6.1,329.8 M 9.4,310.6 11,315 m -1.6,-4.4 -42.6,-15.7 m -1,-2.9 1,2.9 m -1,-2.9 47,-13.5 m 2.5,-4.3 -2.5,4.3 m 2.5,-4.3 -13.8,-15.5 m 0,0 -12.6,-4.7 m 0,0 4.7,-4 M -41.9,236.9 -6.4,250 m -35.5,-13.1 -41.4,35.6 m -7.9,1 7.9,-1 m -7.9,1 -29.5,-11 m -1.6,-4.4 1.6,4.4 m -1.6,-4.4 10.9,-9.4 m -1.6,-4.5 1.6,4.5 m -1.6,-4.5 -16.6,-6.1 m 44,62.6 -10,8.6 m 0,0 1.2,0.4 m 0,0 -25,21.6 m 0,0 -1.5,0.9 -2,0.4 -2.3,0.1 -2,-0.5 -1.6,-0.9 -0.8,-1.1 -0.1,-1.3 0.9,-1.1 m 0,0 25,-21.6 m 0,0 1.1,0.5 m 0,0 11.3,-9.8 m -2.6,-7.2 -0.4,0.9 -0.1,1 0,1 0.2,0.9 0.5,0.9 0.6,0.9 0.8,0.9 1,0.7 m -2.6,-7.2 -17.1,-6.3 m 0,0 -0.8,0.6 m 0,0 -37.9,-13.9 m 0,0 -1.5,-0.9 -0.9,-1.2 0,-1.2 0.8,-1.2 1.6,-0.9 2,-0.5 2.2,0 2.1,0.5 m 0,0 37.8,14 m 0,0 -0.7,0.6 m 0,0 17.1,6.4 m 12.8,-1.6 -1.7,-0.2 -1.6,-0.1 -1.7,0.1 -1.7,0.1 -1.7,0.3 -1.6,0.3 -1.4,0.5 -1.4,0.6 m 12.8,-1.6 11.3,-9.7 m 0,0 -1.2,-0.4 m 0,0 25,-21.6 m 0,0 1.5,-0.9 2.1,-0.5 2.2,0 2,0.5 1.6,0.9 0.9,1.1 0,1.3 -0.9,1.1 m 0,0 -24.9,21.6 m 0,0 -1.2,-0.5 m 0,0 -10,8.6 m 0,0 16.2,-4.6 m 0,0 -0.6,-0.7 m 0,0 40.6,-11.7 m 0,0 2.1,-0.3 2.2,0.1 1.9,0.6 1.4,1 0.5,1.2 -0.2,1.3 -1.1,1 -1.8,0.8 m 0,0 -40.5,11.7 m 0,0 -0.7,-0.7 m 0,0 -18.3,5.2 m -0.4,3.5 0.2,-0.4 0.2,-0.5 0.1,-0.4 0.1,-0.4 0,-0.5 0,-0.4 -0.1,-0.4 -0.1,-0.5 m -0.4,3.5 17.2,6.3 m 0,0 0.7,-0.7 m 0,0 37.9,14 m 0,0 1.6,0.9 0.8,1.2 0,1.2 -0.8,1.2 -1.6,0.9 -2,0.5 -2.2,0 -2,-0.5 m 0,0 -37.9,-14 m 0,0 0.8,-0.6 m 0,0 -17.1,-6.4 m -5.5,1.6 0.7,-0.1 0.7,-0.2 0.8,-0.1 0.7,-0.2 0.6,-0.2 0.7,-0.2 0.6,-0.3 0.7,-0.3 m -5.5,1.6 -1.3,11.6 m 0,0 1.5,0 m 0,0 -2.7,25.7 m 0,0 -0.6,1.2 -1.3,1 -1.9,0.6 -2.2,0.2 -2.2,-0.3 -1.7,-0.8 -1.2,-1 -0.3,-1.3 m 0,0 2.7,-25.6 m 0,0 1.5,0 m 0,0 1,-10.2 m -49,-48.1 -1.9,-1.1 -1.1,-1.4 0,-1.6 1,-1.4 2,-1.1 2.5,-0.7 2.8,0 2.5,0.6 2,1.1 1,1.4 0.1,1.6 -1.1,1.4 -1.9,1.1 -2.6,0.7 -2.7,0 -2.6,-0.6 m -39,33.6 -1.9,-1.1 -1.1,-1.4 0,-1.6 1,-1.4 1.9,-1.1 2.6,-0.6 2.7,-0.1 2.6,0.6 1.9,1.1 1.1,1.4 0,1.6 -1,1.5 -1.9,1.1 -2.6,0.6 -2.7,0 -2.6,-0.6 m 131.6,-56.8 0.1,7.5 m 11.1,-26.5 -0.2,3.5 -0.7,3.7 -1,3.8 -1.4,3.7 -1.6,3.6 -2,3.2 -2.1,2.8 -2.1,2.2 m 6.1,-22.2 5,-4.3 m -5,4.3 -0.1,1.9 -0.4,2.1 -0.5,2.1 -0.8,2.1 -0.9,2 -1.1,1.8 -1.2,1.5 -1.2,1.2 m 35.6,20.6 2.1,-2.2 2.1,-2.8 2,-3.2 1.6,-3.6 1.4,-3.7 1,-3.8 0.7,-3.7 0.2,-3.4 m -35.5,-13.2 35.5,13.2 m -35.9,-73.5 4.7,-2.9 m -4.3,63.2 -0.4,-60.3 m 35.5,13.1 0.4,60.4 m -5.2,-66.8 4.8,6.4 m -30.8,-16 26,9.6 m -14.3,10.4 1.4,0.8 0.7,0.2 m -1.9,34.1 1.4,0.7 0.7,0.2 m -23.6,-48.8 4.9,-4.3 m -4.6,64.6 -0.3,-60.3 m -101.4,77.2 0.1,7.5 m 7.8,-1 0,-7.4 m 0,0 -7.9,0.9 m 54.2,40.9 0,-7.4 m 41.3,-35.7 -41.3,35.7 m -29.8,-28.3 0.1,7.4 m -16.6,-13.5 16.5,6.1 m -75.9,46.6 0,-7.4 m 0,0 51.5,-44.4 m 9.4,13.9 -1.2,0.2 -2.8,0.1 -1.2,-0.2 m 21.9,3.1 -0.1,-7.4 m 0,0 -1.6,-4.5 m 114.6,14.5 0,7.4 m 0,-7.4 -6.7,-2.5 M -57,270 l 0.1,7.5 M -35,251.1 -57,270 m -63.7,-7.5 -0.1,-5.8 m 136.1,10.1 0,7.4 m 0,-7.4 -13.8,-15.5 m -92.7,14.7 0,7.5 m 0,-7.5 -28.3,-10.4 m 72,23.2 0.1,7.2 m -64.5,-9.4 0,7.4 m 0,-7.4 -33.6,-12.4 m 62.2,0.9 -7.9,0.9 m 26,6.9 0,1.5 m -101.9,4.8 -1.2,0.2 -2.8,0 -1.2,-0.2 m 114.2,-9.6 0,7.4 m 1.1,-7 -1.1,-0.4 m -10,8.6 0,7.4 m 10,-16 -10,8.6 m -38.3,0.2 0,0.9 m 54.5,0.8 0,0.9 m 3.8,-2 0,6.3 m -18.3,-0.2 0,5.4 m -27.6,-6.6 0,5.8 m -17.2,-13.1 0.1,6.8 m -0.6,-7 -0.2,0.2 m 20.5,12.9 0,7.4 m -2.6,-10.2 0.1,0.3 0.7,0.9 0.8,0.9 1,0.7 m 24.6,-2.9 0,7.4 m 0,-7.4 0.2,-0.5 0.1,-0.4 0.1,-0.1 m 33.2,9.3 0,-3.1 m 42.6,11.4 0,7.4 m 0,-7.4 -36.1,-13.3 m -44.8,0.7 0.1,7.4 m -5.6,-5.8 0.1,7.4 m -0.1,-7.4 0.8,-0.1 0.7,-0.2 0.7,-0.1 0.7,-0.2 0.7,-0.2 0.7,-0.3 0.6,-0.2 0.6,-0.3 m -82.9,35.7 0.1,7.4 m -0.1,-7.4 38.5,-33.2 m 61.5,5.5 0.1,5.8 m -12.5,-12 -4.7,-1.8 m -6.7,13.2 0,7.4 m 1.2,-19 -1.2,11.6 m -7.4,-10.5 0,7.4 m -10,1.2 0,7.4 m 10,-16 -10,8.6 m 78.3,9.7 0.1,7.4 m -0.1,-7.4 -31.8,-11.8 m -70.3,24 0,7.5 m 23.8,-28 -23.8,20.5 M 11,315 l 0,-7.4 m 0,0 -1.6,-4.4 m -88.9,26.2 0.1,7.5 m 1.8,-25.7 -1.9,18.2 m 64.2,-17.4 -2,-0.4 m -102.1,12.2 -1.5,0.9 -2.1,0.5 -2.2,0 -0.6,0 m -28.5,8.5 -2.2,1.6 -2.1,0.8 -2,0.1 -1.7,-0.6 -1.4,-1.3 -1,-2 -0.7,-2.6 -0.2,-3.1 m 11.2,-0.3 -1.2,0.9 -1.2,0.4 -1,0.1 -1,-0.3 -0.8,-0.8 -0.6,-1.1 -0.3,-1.5 -0.2,-1.7 m 0,0 -4.9,4.3 m 39.6,22.5 0.9,0.3 2,-0.2 2.1,-0.8 2.2,-1.6 m 39.3,-17.4 -0.5,1.3 -1.4,1 -1.9,0.6 -2.2,0.2 -2.1,-0.3 -1.8,-0.8 -0.8,-0.6 m -70.6,-39.5 0.1,31 m -5.1,-28.9 0.2,33.2 M -106,81.2 -39.3,23.8 m -71.9,40.7 5.2,16.7 m -8.4,-16.2 3.2,-0.5 m -15.3,11 12.1,-10.5 m -16,19.7 3.9,-9.2 m -3.3,117.8 -0.1,-12 m -0.1,-22.9 -0.1,-12.1 m -0.1,-23 -0.2,-38.6 m 2.2,109.6 -1.6,-1 m 18.8,-13.8 -17.2,14.8 m 18.7,-18.5 -1.5,3.7 m 1.3,-45.7 0.2,42 m 1.3,-45.7 -1.5,3.7 m 12.4,-13 -10.9,9.3 m 12.4,-8.4 -1.5,-0.9 m 1.6,11.8 -0.1,-10.9 m 46.9,-29.4 -46.8,40.3 m 46.8,-40.3 0,-10.9 m 1.5,-3.7 -1.5,3.7 m 1.5,-3.7 10.8,-9.3 m 1.6,1 -1.6,-1 m 1.6,1 0.1,7.3 m 0.1,24.1 0.1,10.6 m 1.5,1 -1.5,-1 m 1.5,1 17.2,-14.8 m 1.5,-3.7 -1.5,3.7 m 1.5,-3.7 -0.6,-108.6 m -3.9,-2.5 3.9,2.5 m -3.9,-2.5 -13.2,11.3 m -2.4,5.8 2.4,-5.8 m -2.4,5.8 -4.7,23.9 m -77.3,59.5 -0.1,1.6 -0.6,1.8 -0.8,1.5 -1,1.2 -1,0.5 -0.8,-0.1 -0.6,-0.8 -0.2,-1.3 0.2,-1.6 0.5,-1.8 0.9,-1.5 0.9,-1.2 1,-0.5 0.9,0.1 0.5,0.8 0.2,1.3 m 25.4,15.7 -9.4,8.1 m 0,0 -1.6,0.9 -1.4,0 -1,-0.9 -0.6,-1.8 0,-2.5 0.5,-2.7 1.1,-2.8 1.4,-2.4 1.6,-1.8 m 0,0 9.3,-8.1 m 0,0 1.6,-1 1.4,0 1.1,1 0.6,1.8 0,2.4 -0.6,2.8 -1,2.8 -1.4,2.4 -1.6,1.8 m 46.8,-40.3 1.6,-1.8 0.1,-0.2 m 2.9,-10.2 0,0 -0.6,-1.9 -1,-0.9 -1.5,0 -1.6,0.9 m -9.2,22.1 9.3,-8 m -9.4,-6 -1.6,1.8 -1.4,2.4 -1.1,2.8 -0.5,2.8 0,2.4 0.6,1.8 1,1 1.5,0 1.6,-1 m 9.2,-22.1 -9.3,8.1 m 25,-45 0.2,1.3 0.6,0.7 0.8,0.2 1,-0.6 1,-1.1 0.8,-1.6 0.6,-1.7 0.1,-1.7 -0.2,-1.3 -0.5,-0.8 -0.9,-0.1 -1,0.6 -0.9,1.1 -0.9,1.6 -0.5,1.7 -0.2,1.7 M 0.6,99.5 -14.5,93.9 m -1.5,3.7 15,5.6 m 0,0 1.6,-3.7 M -15.1,-14.7 0,-9.2 M 0.6,99.5 0,-9.2 M -18.1,118 -33.2,112.4 M -18.1,118 -1,103.2 m -94.7,29.4 0.4,5.4 1.3,5.6 2.1,5.6 2.8,5.5 3.5,5.3 4,4.9 4.6,4.4 4.9,3.9 5.2,3.1 5.3,2.4 m 42.2,-42.4 -0.7,-0.3 -5.1,-3.2 -5,-3.8 -4.5,-4.4 -4.1,-5 -3.5,-5.2 -2.8,-5.6 -2.1,-5.6 -1.2,-5.5 -0.5,-5.4 m 29.4,28.9 -2.6,-1.8 -3.3,-2.9 -1.5,-1.8 m -12.4,-34 -8.1,-3 m -0.8,105.9 3.2,8.9 m 0,0 9.1,3.4 m 92,-14.8 7.3,-6.2 m 0,0 -3.2,-8.9 m 0,0 -29.5,-10.9 M 5.9,146 3.8,145.2 m -65.4,33.5 13.4,4.9 M 60.2,166 60.1,151.2 m 0,0 -29.5,-10.9 m -79.5,-58.9 7.7,2.8 M -4,-11.7 -19,-17.2 m 19,8 -4,-2.5 M 63.4,174.9 63.3,160 m 0,0 -3.2,-8.8 m -154.6,30.2 -15,-5.6 m -1.5,3.7 15,5.6 m 0,0 1.5,-3.7 m -15.2,-47.6 14.6,5.4 m 0.4,1.7 0.2,40.5 m -18.7,18.5 -15,-5.6 m 32.2,-9.2 -17.2,14.8 m 17.6,-65.2 -12.6,-4.6 m -3,-65.6 15,5.5 m 0,0 0.7,2.2 m 221.9,118.3 -0.1,-14.9 m 0.1,14.9 15.7,-1.9 m 0,0 -0.1,-14.9 m -15.7,1.9 15.7,-1.9 m 55.4,43 13.4,4.9 m -16.6,-13.8 3.2,8.9 m -55.3,-28.1 52.1,19.2 m -81.3,-5.7 13.5,-11.6 m 67.8,17.3 -0.1,-14.8 M 142,173.7 194.1,193 m -93.3,4.6 25.5,-22 m 104.5,4.7 -0.3,1.9 -0.3,1.9 -0.2,1.9 -0.1,1.9 -0.2,1.8 -0.1,1.8 0,1.8 -0.1,1.8 m 9.3,-68.7 -8,53.9 m 15.5,-71.7 -7.5,17.8 m 7.5,-17.8 21.8,-18.8 m 4.3,-10.2 -4.3,10.2 m 15.3,-77 -0.1,-18.2 m -15.8,-9.9 15.8,9.9 M 142.7,92.3 267.5,-15.3 M 127.2,129.1 142.7,92.3 m -15.5,41.7 0,-4.9 m 37.8,49.6 -2.9,2.5 m 10.5,2.2 -7.6,-4.7 m 8,6.5 -0.4,-1.8 m 9.4,-72.2 -0.3,3.4 -0.8,3.7 -1.4,3.6 -1.7,3.3 -2,2.8 -2.1,2.1 -2.1,1.1 -1.9,0.2 -1.5,-0.9 -1.2,-1.7 -0.6,-2.6 0,-3.2 0.6,-3.5 1.1,-3.7 1.5,-3.5 1.9,-3.1 2.1,-2.5 2.1,-1.6 2,-0.6 1.7,0.3 1.4,1.3 0.9,2.2 0.3,2.9 m 46.8,-40.3 0.3,2.9 0.9,2.2 1.3,1.3 1.8,0.3 2,-0.6 2.1,-1.7 2.1,-2.4 1.9,-3.1 1.5,-3.5 1.1,-3.7 0.5,-3.5 0,-3.2 -0.6,-2.6 -1.1,-1.7 -1.6,-0.9 -1.9,0.2 -2,1.1 -2.2,2.1 -2,2.8 -1.7,3.3 -1.3,3.6 -0.8,3.7 -0.3,3.4 m -31.4,145.8 -0.1,-14.8 m -3.2,-8.9 3.2,8.9 m 13.4,4.9 0.1,14.8 m -13.5,-19.7 13.4,4.9 m 33.8,-4.7 0,-1.5 m 0,1.5 -0.7,5.4 -1.7,4.8 -2.5,4.1 -3.4,3.3 -4.2,2.4 -4.7,1.4 -5.3,0.4 -5.5,-0.6 -5.7,-1.7 m -40.2,42.2 4.6,0.4 5.3,-0.4 4.7,-1.4 4.1,-2.4 1,-0.7 m 39.1,-62.7 15.1,5.5 m -15.1,-5.5 -0.5,3.2 -1.3,2.8 -1.8,2.3 -2.3,1.7 -2.8,1.1 -3.1,0.4 -3.4,-0.3 -3.5,-1 m 18.8,-11.7 -0.1,1.5 m 38.7,-106.8 15,5.6 m 0,0 2.7,-6.2 m -2.5,-94.6 15,5.5 m 0.2,44.7 -0.2,-44.7 m -52.5,185.8 -15,-5.6 m 13.7,20.3 0.1,-1.7 0,-1.8 0.2,-1.8 0.1,-1.9 0.2,-1.8 0.2,-1.9 0.2,-1.9 0.3,-1.9 m -7,-59.5 15.1,5.5 m -8.1,54 8.1,-54 m 7.4,-17.7 -15,-5.6 m 15,5.6 21.8,-18.8 m -29.2,36.5 7.4,-17.7 m 21.2,-124 -15,-5.5 m 30.8,15.4 -15.8,-9.9 m 119.1,67.4 0.9,2.1 0.6,3 0,3.5 -0.5,3.9 -1,3.6 m 0.1,5.4 1.1,-2.7 1.3,-4.2 0.7,-4.2 0.3,-3.9 -0.3,-3.4 -0.8,-2.7 -1.3,-2 -1.2,-0.9 m 2.6,0.9 1.6,1.1 1.3,2 0.8,2.7 0.3,3.4 -0.3,3.9 -0.7,4.2 -1.3,4.2 -1.7,4.1 -2.1,3.7 -0.3,0.5 M 253,49.9 l -0.8,1.9 -0.5,2 0,2 0.3,1.8 0.8,1.8 0.1,0.1 m 79.9,44.5 -1.1,1.8 -1.1,1.4 -1.3,1.2 -1.2,0.8 -1.1,0.4 -1.1,0 -0.3,-0.1 M 304,69.7 l 0,-0.1 0.5,-0.9 m 146.6,79 -1,1.8 -1.2,1.4 -1.2,1.2 -1.3,0.8 -1.1,0.4 -1.1,0 -0.3,-0.1 m -135.8,-78.9 0.8,-0.1 2.3,0.4 2.8,1 m 59.4,25.5 0.2,0.4 1.5,1.4 m -0.6,-3.3 -0.1,0 -0.8,0.1 -0.5,0.5 0.3,0.9 m 11.1,4.9 0.4,0.1 m 57.6,16.9 3,1.1 3.1,1.6 2.9,1.8 2.5,1.9 1.8,1.8 1,1.6 0.1,0.2 M 316.3,76.5 360.1,92.6 m 8.8,3.3 8,2.9 m 2.8,1.1 59.7,22 m -71.9,-23.1 0.8,0.6 0.9,0.4 0.8,0.4 0.7,0.1 0.4,0 0.1,-0.3 -0.2,-0.4 -0.2,-0.3 m -11.3,-6.4 -0.4,-0.1 -0.4,0.1 -0.1,0.2 0.2,0.5 0.6,0.5 m 92.8,37.5 -0.2,-0.2 -0.1,-0.1 -0.1,0 M 242.3,15.9 l -1.1,3 -0.1,4.6 1.1,4.9 2,5.4 3.8,7.9 5,8.2 m 32.5,3 -0.2,-0.2 -0.3,-0.1 -0.1,0 m -16,-10.3 0.3,0.2 0.3,0.2 0.3,0.2 0.1,0.3 m 18.7,6.5 -0.6,0.9 -0.8,0.8 -0.9,0.6 -1,0.5 -0.3,0.1 m 4,-1 0,-0.2 0.1,-0.2 0,-0.4 -0.1,-0.3 -0.2,-0.4 -0.2,-0.4 M 261,19 l 0.1,-1.2 m 39,29.4 -0.3,-0.3 -0.4,-0.3 -0.4,-0.2 m 18.8,12.7 0.2,0 0.2,0.3 m -54.5,-34 16.1,25.1 m -13.5,-13.9 -1.1,-2.4 -1.2,-4.6 -0.3,-4.2 m 177.2,79.1 0.1,0.1 0.2,0.2 m -56.7,1.6 -3.3,-2.4 m 0.4,0 4.1,2.8 m -10.9,-6.3 0.7,0.8 2.7,2.3 1.2,0.9 m 1.8,-0.5 -0.1,0.1 -0.2,0 -0.1,0.1 -0.1,0.2 -0.2,0.1 -0.1,0.2 -0.1,0.1 m -16,-8.5 0.5,0.3 0.4,0.3 0.5,0.2 0.4,0 0.2,0 0.1,0 M 282.2,19.4 281.9,18.9 281.3,18.3 281,18.1 280.8,18 m 85.2,77.5 0,0 -0.2,-0.1 m -3.8,-3.1 0.2,0.1 m 4.3,3.7 2.2,1.8 m 0,0 0.4,0.3 0.5,0.3 0.5,0.2 0.4,0.1 0.2,-0.1 0.1,0 m -4.7,-4.8 -0.1,0 -0.2,0.1 -0.2,0.1 -0.1,0.1 -0.2,0.1 -0.1,0.2 -0.2,0.1 0,0.1 m 5.4,2.4 -0.1,0 -0.1,-0.1 m -10.1,-4.4 0,0.1 0.1,0.2 0.3,0.3 m 6.1,0.8 -0.1,0 -0.1,-0.1 m 8.3,5.7 -0.1,0.1 0.2,0.7 0,0.1 m -10.3,-6.3 0,0 m 13.1,6.8 0,0 0.5,0 0.6,0.2 m 72.4,46.5 6.6,2.2 6.1,1.7 5.5,1 4.8,0.5 4,-0.2 3.1,-0.9 2.2,-1.4 0.7,-1 m -6.3,-23.2 1.7,0.9 1.5,1.2 1,1.3 m -24.1,3.7 -0.2,-0.2 -0.2,-0.1 -0.1,-0.1 m -1,-8.6 3,2.4 2.2,2.3 1.4,2 0.5,1.6 -0.6,1.1 M 275.8,15.1 275.7,12 275.2,9.3 274.4,7.1 273.2,5.3 271.8,4.2 271.2,3.9 m 7.4,2.8 0.9,0.5 1.6,1.8 1.1,2.5 0.6,3.4 0.1,3.8 m 0,0 0.6,2.6 0,0.1 m 0.6,-1.4 0,0 0,-0.3 -0.2,-0.3 -0.2,-0.2 -0.4,-0.3 -0.4,-0.2 m -18.3,-14.2 -0.2,0.1 -0.3,0.3 -0.3,0.4 -0.2,0.4 -0.1,0.5 m 186.3,105.9 2.3,0.4 2.1,0.1 1.7,-0.1 1.3,-0.4 0.9,-0.6 0.5,-0.9 0.1,-0.9 m -1.8,-3.6 0.4,0.2 0.2,0.2 0.3,0.2 0.2,0.3 0.2,0.3 0.1,0.2 m -11.6,-3.7 0.6,1.2 0.1,0.9 -0.1,0.4 m -0.6,-2.5 -1.1,2 m 5,-15.3 1.7,1.3 0.8,1.2 m 14.2,24.6 0.3,0.6 0.1,0.6 -0.2,0.4 -0.1,0 m -1.7,-0.5 0.2,-0.1 0.7,-0.5 0.7,-0.5 m -9.7,-11.2 -0.3,-0.2 -0.4,-0.1 m -1.7,-2 0.4,0.2 0.4,0.3 0.2,0.3 m -19.3,-29.2 0.3,0.1 0.2,0.2 0.6,0.6 0.4,0.5 m 10.2,15.8 1.7,2.1 2.8,3.3 2.7,3.3 2.5,3.3 2.5,3.2 2.3,3.2 2.1,3.2 2.1,3.1 m -19.8,-26.3 0.3,-0.7 0.5,-0.5 0.2,-0.1 0.5,-0.1 0.3,0 0.5,0.1 0.2,0.1 0.6,0.5 m -21,-17.7 -0.1,-3.9 -0.6,-3.3 -1.1,-2.6 -1.6,-1.7 -0.9,-0.5 m 15.5,19.9 -0.1,-0.2 -0.8,-2.9 -1.2,-1.7 -1.1,-1 -0.9,-0.4 m 14.2,14 -0.8,-0.5 -1.4,-0.4 -1.6,0.1 -1.3,0.8 m 9.9,-16.5 0.7,0.3 1.7,1.5 1.3,2.5 0.8,3.3 0.2,3.9 -0.4,4.4 -1,4.6 -1.5,4.7 m -37.6,-0.5 0.4,-0.5 1.4,-2 1.3,-2.2 1.2,-2.4 1.1,-2.5 1,-2.5 0.9,-2.6 m -2.9,-0.7 -0.7,2.3 -0.9,2.3 -1,2.2 -1.1,2.1 -1.1,1.9 -1.3,1.8 -1.3,1.6 0,0.1 m -4.2,-28.9 2.3,-2.3 2.5,-1.6 2.4,-0.6 2.1,0.4 1.7,1.4 1.2,2.3 0.7,3.1 0.1,3.7 m 31.8,24.1 0.4,0.1 0.4,0.2 0.3,0.1 0.2,0 0.1,0.1 m -387.3,143.1 0,0.1 -0.1,8.6 0.9,8.5 1.8,8.3 2.6,8 3.5,7.7 4.2,7.1 5,6.4 5.6,5.8 6.1,4.9 6.6,4.1 7,3.1 m 8.5,-11 -6.3,-2.8 -6,-3.8 -5.5,-4.7 -4.9,-5.4 -4.3,-6.1 -3.6,-6.7 -2.7,-7.2 -1.9,-7.5 -1.1,-7.7 -0.1,-4.1 m 55.4,63 -19,-7 m 0.9,-3.1 18,6.6 m -36.1,-52.4 0.3,0.7 1.3,2.6 1.4,2.5 1.6,2.4 m 12,-100.5 -7.2,10.2 -6.3,11.1 -5.6,12 -0.3,0.9 m -3.9,1.6 1,-2.6 5.1,-11.3 5.9,-10.7 6.5,-10 7.6,-9 8.4,-7.8 0.1,-0.1 m -8.3,-11.3 -2.9,2.2 -9.4,8.6 -8.4,10.1 -7.4,11 -6.2,11.5 -5.4,12.1 -0.8,2.1 m 29.6,121.6 -0.9,-0.2 m 10.6,-178.5 1.2,-0.5 m -3.4,125.3 -4.5,-0.5 m -5.7,-71.2 3.1,-6.1 6.3,-10 m 18.6,1.8 -0.1,0.4 m -5.4,0.6 0.8,-2.8 m -7,3.6 2.6,-9.3 m 0.7,4.9 -1.2,4.1 m -4.5,86.7 -1,-0.4 -0.9,-0.3 -1,-0.3 -1,-0.2 -1,-0.1 -1,0 -0.1,0 m 1.5,-88.7 -2.9,10.5 m 5.9,78.1 0,0.1 0.1,0.1 m 20.5,-120.5 1.3,0.6 1.5,1.8 1.2,2.6 0.6,3.3 0,3.9 -0.5,4.3 -1,4.5 -1.5,4.5 -1.9,4.4 -2.2,3.9 m -2.1,0 0,0 -0.2,-0.2 -0.2,-0.1 m -15.5,87 0.3,0 m 3.2,1.1 -0.1,0 m -3.4,-1.1 0.4,0.1 0.5,0.1 0.4,0.1 0.1,0.1 m 1.7,0.6 0.3,0.1 m 2.1,0.8 -0.2,0 m 0,0 12.1,4.5 m -18.4,1.1 18.5,6.8 m 0.1,23.8 -18.7,-6.9 m -8.7,21.7 27.5,10.1 m -0.3,-55.8 -14.2,-5.2 m 14.4,41 -18.2,-6.7 m 20.3,-123 -0.1,0 -0.2,0.2 -0.2,0 -0.4,0 -0.4,-0.1 -0.4,-0.1 m -174.6,78.5 0,3.5 m -117.8,8.8 0,5.4 m 142.9,-1.5 0,5.7 m -153.8,48 7.7,2.8 m 91.4,-146.4 25.5,-21.9 m 10.7,-9.2 6.1,-5.3 m -23.5,-47.8 -6.1,-2.2 m 9.1,-46 -4.7,-1.7 m 1.8,12.2 -11.1,-4.1 m -32.8,34 -4.7,-1.7 m 1.7,12.2 -11,-4.1 m 279.9,155.7 31.5,-27.2 m 3.9,-13.8 14.8,-12.7"
         style="fill:none;stroke:#000000;stroke-width:0.70899999;stroke-linecap:round;stroke-linejoin:round;stroke-miterlimit:10;stroke-dasharray:none;stroke-opacity:1"
         id="path14"
         inkscape:connector-curvature="0" /></g></g></svg>